SUMAUNO24/simulation/qsim/SUMAUNO24.msim.vcd
$comment
	File created using the following command:
		vcd file SUMAUNO24.msim.vcd -direction
$end
$date
	Thu Feb 29 23:12:32 2024
$end
$version
	ModelSim Version 10.5b
$end
$timescale
	1ps
$end

$scope module sumauno24_vhd_vec_tst $end
$var wire 1 ! A [23] $end
$var wire 1 " A [22] $end
$var wire 1 # A [21] $end
$var wire 1 $ A [20] $end
$var wire 1 % A [19] $end
$var wire 1 & A [18] $end
$var wire 1 ' A [17] $end
$var wire 1 ( A [16] $end
$var wire 1 ) A [15] $end
$var wire 1 * A [14] $end
$var wire 1 + A [13] $end
$var wire 1 , A [12] $end
$var wire 1 - A [11] $end
$var wire 1 . A [10] $end
$var wire 1 / A [9] $end
$var wire 1 0 A [8] $end
$var wire 1 1 A [7] $end
$var wire 1 2 A [6] $end
$var wire 1 3 A [5] $end
$var wire 1 4 A [4] $end
$var wire 1 5 A [3] $end
$var wire 1 6 A [2] $end
$var wire 1 7 A [1] $end
$var wire 1 8 A [0] $end
$var wire 1 9 S [23] $end
$var wire 1 : S [22] $end
$var wire 1 ; S [21] $end
$var wire 1 < S [20] $end
$var wire 1 = S [19] $end
$var wire 1 > S [18] $end
$var wire 1 ? S [17] $end
$var wire 1 @ S [16] $end
$var wire 1 A S [15] $end
$var wire 1 B S [14] $end
$var wire 1 C S [13] $end
$var wire 1 D S [12] $end
$var wire 1 E S [11] $end
$var wire 1 F S [10] $end
$var wire 1 G S [9] $end
$var wire 1 H S [8] $end
$var wire 1 I S [7] $end
$var wire 1 J S [6] $end
$var wire 1 K S [5] $end
$var wire 1 L S [4] $end
$var wire 1 M S [3] $end
$var wire 1 N S [2] $end
$var wire 1 O S [1] $end
$var wire 1 P S [0] $end

$scope module i1 $end
$var wire 1 Q gnd $end
$var wire 1 R vcc $end
$var wire 1 S unknown $end
$var wire 1 T devoe $end
$var wire 1 U devclrn $end
$var wire 1 V devpor $end
$var wire 1 W ww_devoe $end
$var wire 1 X ww_devclrn $end
$var wire 1 Y ww_devpor $end
$var wire 1 Z ww_A [23] $end
$var wire 1 [ ww_A [22] $end
$var wire 1 \ ww_A [21] $end
$var wire 1 ] ww_A [20] $end
$var wire 1 ^ ww_A [19] $end
$var wire 1 _ ww_A [18] $end
$var wire 1 ` ww_A [17] $end
$var wire 1 a ww_A [16] $end
$var wire 1 b ww_A [15] $end
$var wire 1 c ww_A [14] $end
$var wire 1 d ww_A [13] $end
$var wire 1 e ww_A [12] $end
$var wire 1 f ww_A [11] $end
$var wire 1 g ww_A [10] $end
$var wire 1 h ww_A [9] $end
$var wire 1 i ww_A [8] $end
$var wire 1 j ww_A [7] $end
$var wire 1 k ww_A [6] $end
$var wire 1 l ww_A [5] $end
$var wire 1 m ww_A [4] $end
$var wire 1 n ww_A [3] $end
$var wire 1 o ww_A [2] $end
$var wire 1 p ww_A [1] $end
$var wire 1 q ww_A [0] $end
$var wire 1 r ww_S [23] $end
$var wire 1 s ww_S [22] $end
$var wire 1 t ww_S [21] $end
$var wire 1 u ww_S [20] $end
$var wire 1 v ww_S [19] $end
$var wire 1 w ww_S [18] $end
$var wire 1 x ww_S [17] $end
$var wire 1 y ww_S [16] $end
$var wire 1 z ww_S [15] $end
$var wire 1 { ww_S [14] $end
$var wire 1 | ww_S [13] $end
$var wire 1 } ww_S [12] $end
$var wire 1 ~ ww_S [11] $end
$var wire 1 !! ww_S [10] $end
$var wire 1 "! ww_S [9] $end
$var wire 1 #! ww_S [8] $end
$var wire 1 $! ww_S [7] $end
$var wire 1 %! ww_S [6] $end
$var wire 1 &! ww_S [5] $end
$var wire 1 '! ww_S [4] $end
$var wire 1 (! ww_S [3] $end
$var wire 1 )! ww_S [2] $end
$var wire 1 *! ww_S [1] $end
$var wire 1 +! ww_S [0] $end
$var wire 1 ,! \~QUARTUS_CREATED_ADC1~_CHSEL_bus\ [4] $end
$var wire 1 -! \~QUARTUS_CREATED_ADC1~_CHSEL_bus\ [3] $end
$var wire 1 .! \~QUARTUS_CREATED_ADC1~_CHSEL_bus\ [2] $end
$var wire 1 /! \~QUARTUS_CREATED_ADC1~_CHSEL_bus\ [1] $end
$var wire 1 0! \~QUARTUS_CREATED_ADC1~_CHSEL_bus\ [0] $end
$var wire 1 1! \~QUARTUS_CREATED_GND~I_combout\ $end
$var wire 1 2! \~QUARTUS_CREATED_UNVM~~busy\ $end
$var wire 1 3! \~QUARTUS_CREATED_ADC1~~eoc\ $end
$var wire 1 4! \S[0]~output_o\ $end
$var wire 1 5! \S[1]~output_o\ $end
$var wire 1 6! \S[2]~output_o\ $end
$var wire 1 7! \S[3]~output_o\ $end
$var wire 1 8! \S[4]~output_o\ $end
$var wire 1 9! \S[5]~output_o\ $end
$var wire 1 :! \S[6]~output_o\ $end
$var wire 1 ;! \S[7]~output_o\ $end
$var wire 1 <! \S[8]~output_o\ $end
$var wire 1 =! \S[9]~output_o\ $end
$var wire 1 >! \S[10]~output_o\ $end
$var wire 1 ?! \S[11]~output_o\ $end
$var wire 1 @! \S[12]~output_o\ $end
$var wire 1 A! \S[13]~output_o\ $end
$var wire 1 B! \S[14]~output_o\ $end
$var wire 1 C! \S[15]~output_o\ $end
$var wire 1 D! \S[16]~output_o\ $end
$var wire 1 E! \S[17]~output_o\ $end
$var wire 1 F! \S[18]~output_o\ $end
$var wire 1 G! \S[19]~output_o\ $end
$var wire 1 H! \S[20]~output_o\ $end
$var wire 1 I! \S[21]~output_o\ $end
$var wire 1 J! \S[22]~output_o\ $end
$var wire 1 K! \S[23]~output_o\ $end
$var wire 1 L! \A[0]~input_o\ $end
$var wire 1 M! \A[1]~input_o\ $end
$var wire 1 N! \I1|s~combout\ $end
$var wire 1 O! \A[2]~input_o\ $end
$var wire 1 P! \I2|s~combout\ $end
$var wire 1 Q! \A[3]~input_o\ $end
$var wire 1 R! \I3|s~combout\ $end
$var wire 1 S! \A[4]~input_o\ $end
$var wire 1 T! \I3|Cout~combout\ $end
$var wire 1 U! \I4|s~combout\ $end
$var wire 1 V! \A[5]~input_o\ $end
$var wire 1 W! \I5|s~combout\ $end
$var wire 1 X! \A[6]~input_o\ $end
$var wire 1 Y! \I6|s~combout\ $end
$var wire 1 Z! \I6|Cout~combout\ $end
$var wire 1 [! \A[7]~input_o\ $end
$var wire 1 \! \I7|s~combout\ $end
$var wire 1 ]! \A[8]~input_o\ $end
$var wire 1 ^! \I8|s~combout\ $end
$var wire 1 _! \A[9]~input_o\ $end
$var wire 1 `! \I9|s~combout\ $end
$var wire 1 a! \A[10]~input_o\ $end
$var wire 1 b! \I9|Cout~combout\ $end
$var wire 1 c! \I10|s~combout\ $end
$var wire 1 d! \A[11]~input_o\ $end
$var wire 1 e! \I11|s~combout\ $end
$var wire 1 f! \A[12]~input_o\ $end
$var wire 1 g! \I12|s~combout\ $end
$var wire 1 h! \I12|Cout~combout\ $end
$var wire 1 i! \A[13]~input_o\ $end
$var wire 1 j! \I13|s~combout\ $end
$var wire 1 k! \A[14]~input_o\ $end
$var wire 1 l! \I14|s~combout\ $end
$var wire 1 m! \A[15]~input_o\ $end
$var wire 1 n! \I15|s~combout\ $end
$var wire 1 o! \I15|Cout~combout\ $end
$var wire 1 p! \A[16]~input_o\ $end
$var wire 1 q! \I16|s~combout\ $end
$var wire 1 r! \A[17]~input_o\ $end
$var wire 1 s! \I17|s~combout\ $end
$var wire 1 t! \A[18]~input_o\ $end
$var wire 1 u! \I18|s~combout\ $end
$var wire 1 v! \A[19]~input_o\ $end
$var wire 1 w! \I18|Cout~combout\ $end
$var wire 1 x! \I19|s~combout\ $end
$var wire 1 y! \A[20]~input_o\ $end
$var wire 1 z! \I20|s~combout\ $end
$var wire 1 {! \A[21]~input_o\ $end
$var wire 1 |! \I21|s~combout\ $end
$var wire 1 }! \I21|Cout~combout\ $end
$var wire 1 ~! \A[22]~input_o\ $end
$var wire 1 !" \I22|s~combout\ $end
$var wire 1 "" \A[23]~input_o\ $end
$var wire 1 #" \I23|s~combout\ $end
$var wire 1 $" \ALT_INV_A[0]~input_o\ $end
$upscope $end
$upscope $end
$enddefinitions $end
#0
$dumpvars
0Q
1R
xS
1T
1U
1V
1W
1X
1Y
01!
z2!
z3!
14!
05!
06!
07!
08!
09!
0:!
0;!
0<!
0=!
0>!
0?!
0@!
0A!
0B!
0C!
0D!
0E!
0F!
0G!
0H!
0I!
0J!
0K!
0L!
0M!
0N!
0O!
0P!
0Q!
0R!
0S!
0T!
0U!
0V!
0W!
0X!
0Y!
0Z!
0[!
0\!
0]!
0^!
0_!
0`!
0a!
0b!
0c!
0d!
0e!
0f!
0g!
0h!
0i!
0j!
0k!
0l!
0m!
0n!
0o!
0p!
0q!
0r!
0s!
0t!
0u!
0v!
0w!
0x!
0y!
0z!
0{!
0|!
0}!
0~!
0!"
0""
0#"
1$"
0!
0"
0#
0$
0%
0&
0'
0(
0)
0*
0+
0,
0-
0.
0/
00
01
02
03
04
05
06
07
08
09
0:
0;
0<
0=
0>
0?
0@
0A
0B
0C
0D
0E
0F
0G
0H
0I
0J
0K
0L
0M
0N
0O
1P
0Z
0[
0\
0]
0^
0_
0`
0a
0b
0c
0d
0e
0f
0g
0h
0i
0j
0k
0l
0m
0n
0o
0p
0q
0r
0s
0t
0u
0v
0w
0x
0y
0z
0{
0|
0}
0~
0!!
0"!
0#!
0$!
0%!
0&!
0'!
0(!
0)!
0*!
1+!
0,!
0-!
0.!
0/!
00!
$end
#10000
18
1q
1L!
0$"
1N!
04!
15!
0+!
1*!
0P
1O
#20000
08
17
0q
1p
1M!
0L!
1$"
14!
1+!
1P
#30000
18
1q
1L!
0$"
0N!
1P!
04!
16!
05!
0+!
1)!
0*!
0P
0O
1N
#40000
08
07
16
0q
0p
1o
1O!
0M!
0L!
1$"
14!
1+!
1P
#50000
18
1q
1L!
0$"
1N!
04!
15!
0+!
1*!
0P
1O
#60000
08
17
0q
1p
1M!
0L!
1$"
14!
1+!
1P
#70000
18
1q
1L!
0$"
0N!
0P!
1R!
04!
17!
06!
05!
0+!
1(!
0)!
0*!
0P
0O
0N
1M
#80000
08
07
06
15
0q
0p
0o
1n
1Q!
0O!
0M!
0L!
1$"
14!
1+!
1P
#90000
18
1q
1L!
0$"
1N!
04!
15!
0+!
1*!
0P
1O
#100000
08
17
0q
1p
1M!
0L!
1$"
14!
1+!
1P
#110000
18
1q
1L!
0$"
0N!
1P!
04!
16!
05!
0+!
1)!
0*!
0P
0O
1N
#120000
08
07
16
0q
0p
1o
1O!
0M!
0L!
1$"
14!
1+!
1P
#130000
18
1q
1L!
0$"
1N!
04!
15!
0+!
1*!
0P
1O
#140000
08
17
0q
1p
1M!
0L!
1$"
14!
1+!
1P
#150000
18
1q
1L!
0$"
0N!
0P!
0R!
1T!
04!
07!
06!
05!
1U!
0+!
0(!
0)!
0*!
0P
18!
0O
0N
0M
1'!
1L
#160000
08
07
06
05
14
0q
0p
0o
0n
1m
1S!
0Q!
0O!
0M!
0L!
1$"
0T!
0U!
1W!
14!
19!
08!
1U!
0W!
1+!
1&!
0'!
1P
09!
18!
0L
1K
0&!
1'!
1L
0K
#170000
18
1q
1L!
0$"
1N!
04!
15!
0+!
1*!
0P
1O
#180000
08
17
0q
1p
1M!
0L!
1$"
14!
1+!
1P
#190000
18
1q
1L!
0$"
0N!
1P!
04!
16!
05!
0+!
1)!
0*!
0P
0O
1N
#200000
08
07
16
0q
0p
1o
1O!
0M!
0L!
1$"
14!
1+!
1P
#210000
18
1q
1L!
0$"
1N!
04!
15!
0+!
1*!
0P
1O
#220000
08
17
0q
1p
1M!
0L!
1$"
14!
1+!
1P
#230000
18
1q
1L!
0$"
0N!
0P!
1R!
04!
17!
06!
05!
0+!
1(!
0)!
0*!
0P
0O
0N
1M
#240000
08
07
06
15
0q
0p
0o
1n
1Q!
0O!
0M!
0L!
1$"
14!
1+!
1P
#250000
18
1q
1L!
0$"
1N!
04!
15!
0+!
1*!
0P
1O
#260000
08
17
0q
1p
1M!
0L!
1$"
14!
1+!
1P
#270000
18
1q
1L!
0$"
0N!
1P!
04!
16!
05!
0+!
1)!
0*!
0P
0O
1N
#280000
08
07
16
0q
0p
1o
1O!
0M!
0L!
1$"
14!
1+!
1P
#290000
18
1q
1L!
0$"
1N!
04!
15!
0+!
1*!
0P
1O
#300000
08
17
0q
1p
1M!
0L!
1$"
14!
1+!
1P
#310000
18
1q
1L!
0$"
0N!
0P!
0R!
1T!
04!
07!
06!
05!
0U!
1W!
0+!
0(!
0)!
0*!
0P
19!
08!
0O
0N
0M
1&!
0'!
0L
1K
#320000
08
07
06
05
04
13
0q
0p
0o
0n
0m
1l
1V!
0S!
0Q!
0O!
0M!
0L!
1$"
0T!
1U!
14!
18!
0U!
1+!
1'!
1P
08!
1L
0'!
0L
#330000
18
1q
1L!
0$"
1N!
04!
15!
0+!
1*!
0P
1O
#340000
08
17
0q
1p
1M!
0L!
1$"
14!
1+!
1P
#350000
18
1q
1L!
0$"
0N!
1P!
04!
16!
05!
0+!
1)!
0*!
0P
0O
1N
#360000
08
07
16
0q
0p
1o
1O!
0M!
0L!
1$"
14!
1+!
1P
#370000
18
1q
1L!
0$"
1N!
04!
15!
0+!
1*!
0P
1O
#380000
08
17
0q
1p
1M!
0L!
1$"
14!
1+!
1P
#390000
18
1q
1L!
0$"
0N!
0P!
1R!
04!
17!
06!
05!
0+!
1(!
0)!
0*!
0P
0O
0N
1M
#400000
08
07
06
15
0q
0p
0o
1n
1Q!
0O!
0M!
0L!
1$"
14!
1+!
1P
#410000
18
1q
1L!
0$"
1N!
04!
15!
0+!
1*!
0P
1O
#420000
08
17
0q
1p
1M!
0L!
1$"
14!
1+!
1P
#430000
18
1q
1L!
0$"
0N!
1P!
04!
16!
05!
0+!
1)!
0*!
0P
0O
1N
#440000
08
07
16
0q
0p
1o
1O!
0M!
0L!
1$"
14!
1+!
1P
#450000
18
1q
1L!
0$"
1N!
04!
15!
0+!
1*!
0P
1O
#460000
08
17
0q
1p
1M!
0L!
1$"
14!
1+!
1P
#470000
18
1q
1L!
0$"
0N!
0P!
0R!
1T!
04!
07!
06!
05!
1U!
0+!
0(!
0)!
0*!
0P
18!
0O
0N
0M
1'!
1L
#480000
08
07
06
05
14
0q
0p
0o
0n
1m
1S!
0Q!
0O!
0M!
0L!
1$"
0T!
0U!
0W!
1Y!
14!
1:!
09!
08!
1U!
1W!
0Y!
1+!
1%!
0&!
0'!
1P
0:!
19!
18!
0L
0K
1J
0%!
1&!
1'!
1L
1K
0J
#490000
18
1q
1L!
0$"
1N!
04!
15!
0+!
1*!
0P
1O
#500000
08
17
0q
1p
1M!
0L!
1$"
14!
1+!
1P
#510000
18
1q
1L!
0$"
0N!
1P!
04!
16!
05!
0+!
1)!
0*!
0P
0O
1N
#520000
08
07
16
0q
0p
1o
1O!
0M!
0L!
1$"
14!
1+!
1P
#530000
18
1q
1L!
0$"
1N!
04!
15!
0+!
1*!
0P
1O
#540000
08
17
0q
1p
1M!
0L!
1$"
14!
1+!
1P
#550000
18
1q
1L!
0$"
0N!
0P!
1R!
04!
17!
06!
05!
0+!
1(!
0)!
0*!
0P
0O
0N
1M
#560000
08
07
06
15
0q
0p
0o
1n
1Q!
0O!
0M!
0L!
1$"
14!
1+!
1P
#570000
18
1q
1L!
0$"
1N!
04!
15!
0+!
1*!
0P
1O
#580000
08
17
0q
1p
1M!
0L!
1$"
14!
1+!
1P
#590000
18
1q
1L!
0$"
0N!
1P!
04!
16!
05!
0+!
1)!
0*!
0P
0O
1N
#600000
08
07
16
0q
0p
1o
1O!
0M!
0L!
1$"
14!
1+!
1P
#610000
18
1q
1L!
0$"
1N!
04!
15!
0+!
1*!
0P
1O
#620000
08
17
0q
1p
1M!
0L!
1$"
14!
1+!
1P
#630000
18
1q
1L!
0$"
0N!
0P!
0R!
1T!
04!
07!
06!
05!
0U!
0W!
1Y!
0+!
0(!
0)!
0*!
0P
1:!
09!
08!
0O
0N
0M
1%!
0&!
0'!
0L
0K
1J
#640000
08
07
06
05
04
03
12
0q
0p
0o
0n
0m
0l
1k
1X!
0V!
0S!
0Q!
0O!
0M!
0L!
1$"
0T!
1U!
14!
18!
0U!
1+!
1'!
1P
08!
1L
0'!
0L
#650000
18
1q
1L!
0$"
1N!
04!
15!
0+!
1*!
0P
1O
#660000
08
17
0q
1p
1M!
0L!
1$"
14!
1+!
1P
#670000
18
1q
1L!
0$"
0N!
1P!
04!
16!
05!
0+!
1)!
0*!
0P
0O
1N
#680000
08
07
16
0q
0p
1o
1O!
0M!
0L!
1$"
14!
1+!
1P
#690000
18
1q
1L!
0$"
1N!
04!
15!
0+!
1*!
0P
1O
#700000
08
17
0q
1p
1M!
0L!
1$"
14!
1+!
1P
#710000
18
1q
1L!
0$"
0N!
0P!
1R!
04!
17!
06!
05!
0+!
1(!
0)!
0*!
0P
0O
0N
1M
#720000
08
07
06
15
0q
0p
0o
1n
1Q!
0O!
0M!
0L!
1$"
14!
1+!
1P
#730000
18
1q
1L!
0$"
1N!
04!
15!
0+!
1*!
0P
1O
#740000
08
17
0q
1p
1M!
0L!
1$"
14!
1+!
1P
#750000
18
1q
1L!
0$"
0N!
1P!
04!
16!
05!
0+!
1)!
0*!
0P
0O
1N
#760000
08
07
16
0q
0p
1o
1O!
0M!
0L!
1$"
14!
1+!
1P
#770000
18
1q
1L!
0$"
1N!
04!
15!
0+!
1*!
0P
1O
#780000
08
17
0q
1p
1M!
0L!
1$"
14!
1+!
1P
#790000
18
1q
1L!
0$"
0N!
0P!
0R!
1T!
04!
07!
06!
05!
1U!
0+!
0(!
0)!
0*!
0P
18!
0O
0N
0M
1'!
1L
#800000
08
07
06
05
14
0q
0p
0o
0n
1m
1S!
0Q!
0O!
0M!
0L!
1$"
0T!
0U!
1W!
14!
19!
08!
1U!
0W!
1+!
1&!
0'!
1P
09!
18!
0L
1K
0&!
1'!
1L
0K
#810000
18
1q
1L!
0$"
1N!
04!
15!
0+!
1*!
0P
1O
#820000
08
17
0q
1p
1M!
0L!
1$"
14!
1+!
1P
#830000
18
1q
1L!
0$"
0N!
1P!
04!
16!
05!
0+!
1)!
0*!
0P
0O
1N
#840000
08
07
16
0q
0p
1o
1O!
0M!
0L!
1$"
14!
1+!
1P
#850000
18
1q
1L!
0$"
1N!
04!
15!
0+!
1*!
0P
1O
#860000
08
17
0q
1p
1M!
0L!
1$"
14!
1+!
1P
#870000
18
1q
1L!
0$"
0N!
0P!
1R!
04!
17!
06!
05!
0+!
1(!
0)!
0*!
0P
0O
0N
1M
#880000
08
07
06
15
0q
0p
0o
1n
1Q!
0O!
0M!
0L!
1$"
14!
1+!
1P
#890000
18
1q
1L!
0$"
1N!
04!
15!
0+!
1*!
0P
1O
#900000
08
17
0q
1p
1M!
0L!
1$"
14!
1+!
1P
#910000
18
1q
1L!
0$"
0N!
1P!
04!
16!
05!
0+!
1)!
0*!
0P
0O
1N
#920000
08
07
16
0q
0p
1o
1O!
0M!
0L!
1$"
14!
1+!
1P
#930000
18
1q
1L!
0$"
1N!
04!
15!
0+!
1*!
0P
1O
#940000
08
17
0q
1p
1M!
0L!
1$"
14!
1+!
1P
#950000
18
1q
1L!
0$"
0N!
0P!
0R!
1T!
04!
07!
06!
05!
0U!
1W!
0+!
0(!
0)!
0*!
0P
19!
08!
0O
0N
0M
1&!
0'!
0L
1K
#960000
08
07
06
05
04
13
0q
0p
0o
0n
0m
1l
1V!
0S!
0Q!
0O!
0M!
0L!
1$"
0T!
1U!
14!
18!
0U!
1+!
1'!
1P
08!
1L
0'!
0L
#970000
18
1q
1L!
0$"
1N!
04!
15!
0+!
1*!
0P
1O
#980000
08
17
0q
1p
1M!
0L!
1$"
14!
1+!
1P
#990000
18
1q
1L!
0$"
0N!
1P!
04!
16!
05!
0+!
1)!
0*!
0P
0O
1N
