CONTMOD525/simulation/qsim/CONTMOD525.msim.vcd
$comment
	File created using the following command:
		vcd file CONTMOD525.msim.vcd -direction
$end
$date
	Thu Mar 07 10:07:51 2024
$end
$version
	ModelSim Version 10.5b
$end
$timescale
	1ps
$end

$scope module contmod525_vhd_vec_tst $end
$var wire 1 ! CLK $end
$var wire 1 " O [9] $end
$var wire 1 # O [8] $end
$var wire 1 $ O [7] $end
$var wire 1 % O [6] $end
$var wire 1 & O [5] $end
$var wire 1 ' O [4] $end
$var wire 1 ( O [3] $end
$var wire 1 ) O [2] $end
$var wire 1 * O [1] $end
$var wire 1 + O [0] $end
$var wire 1 , RST $end

$scope module i1 $end
$var wire 1 - gnd $end
$var wire 1 . vcc $end
$var wire 1 / unknown $end
$var wire 1 0 devoe $end
$var wire 1 1 devclrn $end
$var wire 1 2 devpor $end
$var wire 1 3 ww_devoe $end
$var wire 1 4 ww_devclrn $end
$var wire 1 5 ww_devpor $end
$var wire 1 6 ww_CLK $end
$var wire 1 7 ww_RST $end
$var wire 1 8 ww_O [9] $end
$var wire 1 9 ww_O [8] $end
$var wire 1 : ww_O [7] $end
$var wire 1 ; ww_O [6] $end
$var wire 1 < ww_O [5] $end
$var wire 1 = ww_O [4] $end
$var wire 1 > ww_O [3] $end
$var wire 1 ? ww_O [2] $end
$var wire 1 @ ww_O [1] $end
$var wire 1 A ww_O [0] $end
$var wire 1 B \~QUARTUS_CREATED_ADC1~_CHSEL_bus\ [4] $end
$var wire 1 C \~QUARTUS_CREATED_ADC1~_CHSEL_bus\ [3] $end
$var wire 1 D \~QUARTUS_CREATED_ADC1~_CHSEL_bus\ [2] $end
$var wire 1 E \~QUARTUS_CREATED_ADC1~_CHSEL_bus\ [1] $end
$var wire 1 F \~QUARTUS_CREATED_ADC1~_CHSEL_bus\ [0] $end
$var wire 1 G \CLK~inputclkctrl_INCLK_bus\ [3] $end
$var wire 1 H \CLK~inputclkctrl_INCLK_bus\ [2] $end
$var wire 1 I \CLK~inputclkctrl_INCLK_bus\ [1] $end
$var wire 1 J \CLK~inputclkctrl_INCLK_bus\ [0] $end
$var wire 1 K \~QUARTUS_CREATED_GND~I_combout\ $end
$var wire 1 L \~QUARTUS_CREATED_UNVM~~busy\ $end
$var wire 1 M \~QUARTUS_CREATED_ADC1~~eoc\ $end
$var wire 1 N \O[0]~output_o\ $end
$var wire 1 O \O[1]~output_o\ $end
$var wire 1 P \O[2]~output_o\ $end
$var wire 1 Q \O[3]~output_o\ $end
$var wire 1 R \O[4]~output_o\ $end
$var wire 1 S \O[5]~output_o\ $end
$var wire 1 T \O[6]~output_o\ $end
$var wire 1 U \O[7]~output_o\ $end
$var wire 1 V \O[8]~output_o\ $end
$var wire 1 W \O[9]~output_o\ $end
$var wire 1 X \CLK~input_o\ $end
$var wire 1 Y \CLK~inputclkctrl_outclk\ $end
$var wire 1 Z \I0|Q[0]~10_combout\ $end
$var wire 1 [ \RST~input_o\ $end
$var wire 1 \ \I0|Q[1]~0_combout\ $end
$var wire 1 ] \I0|Q[2]~1_combout\ $end
$var wire 1 ^ \I0|Q[3]~2_combout\ $end
$var wire 1 _ \I0|I0|I3|Cout~combout\ $end
$var wire 1 ` \I0|Q[4]~3_combout\ $end
$var wire 1 a \I0|Q[5]~4_combout\ $end
$var wire 1 b \I0|Q[6]~5_combout\ $end
$var wire 1 c \I0|I0|I6|Cout~combout\ $end
$var wire 1 d \I0|Q[7]~6_combout\ $end
$var wire 1 e \I0|Q[8]~7_combout\ $end
$var wire 1 f \I0|Q[9]~8_combout\ $end
$var wire 1 g \I0|Q[9]~9_combout\ $end
$var wire 1 h \Equal0~0_combout\ $end
$var wire 1 i \Equal0~2_combout\ $end
$var wire 1 j \Equal0~1_combout\ $end
$var wire 1 k \R~0_combout\ $end
$var wire 1 l \I0|Q\ [9] $end
$var wire 1 m \I0|Q\ [8] $end
$var wire 1 n \I0|Q\ [7] $end
$var wire 1 o \I0|Q\ [6] $end
$var wire 1 p \I0|Q\ [5] $end
$var wire 1 q \I0|Q\ [4] $end
$var wire 1 r \I0|Q\ [3] $end
$var wire 1 s \I0|Q\ [2] $end
$var wire 1 t \I0|Q\ [1] $end
$var wire 1 u \I0|Q\ [0] $end
$var wire 1 v \ALT_INV_R~0_combout\ $end
$upscope $end
$upscope $end
$enddefinitions $end
#0
$dumpvars
0!
0,
0-
1.
x/
10
11
12
13
14
15
06
07
0K
zL
zM
0N
0O
0P
0Q
0R
0S
0T
0U
0V
0W
0X
0Y
1Z
0[
0\
0]
0^
0_
0`
0a
0b
0c
0d
0e
1f
0g
0h
0i
0j
0k
1v
0"
0#
0$
0%
0&
0'
0(
0)
0*
0+
08
09
0:
0;
0<
0=
0>
0?
0@
0A
0l
0m
0n
0o
0p
0q
0r
0s
0t
0u
1G
1H
1I
0J
0B
0C
0D
0E
0F
$end
#500
1!
16
1X
1J
1Y
1u
1N
0Z
1\
1i
1A
1+
#1000
0!
06
0X
0J
0Y
#1500
1!
16
1X
1J
1Y
1t
0u
0N
1O
1Z
0i
0A
1@
0+
1*
#2000
0!
06
0X
0J
0Y
#2500
1!
16
1X
1J
1Y
1u
1N
0Z
0\
1]
1A
1+
#3000
0!
06
0X
0J
0Y
#3500
1!
16
1X
1J
1Y
0t
1s
0u
0N
1P
0O
1Z
0A
1?
0@
0+
0*
1)
#4000
0!
06
0X
0J
0Y
#4500
1!
16
1X
1J
1Y
1u
1N
0Z
1\
1i
1A
1+
#5000
0!
06
0X
0J
0Y
#5500
1!
16
1X
1J
1Y
1t
0u
0N
1O
1Z
0i
0A
1@
0+
1*
#6000
0!
06
0X
0J
0Y
#6500
1!
16
1X
1J
1Y
1u
1N
0Z
0\
0]
1^
1A
1+
#7000
0!
06
0X
0J
0Y
#7500
1!
16
1X
1J
1Y
0t
0s
1r
0u
0N
1Q
0P
0O
1Z
0A
1>
0?
0@
0+
0*
0)
1(
#8000
0!
06
0X
0J
0Y
#8500
1!
16
1X
1J
1Y
1u
1N
0Z
1\
1i
1A
1+
#9000
0!
06
0X
0J
0Y
#9500
1!
16
1X
1J
1Y
1t
0u
0N
1O
1Z
0i
0A
1@
0+
1*
#10000
0!
06
0X
0J
0Y
#10500
1!
16
1X
1J
1Y
1u
1N
0Z
0\
1]
1A
1+
#11000
0!
06
0X
0J
0Y
#11500
1!
16
1X
1J
1Y
0t
1s
0u
0N
1P
0O
1Z
1j
0A
1?
0@
0+
0*
1)
#12000
0!
06
0X
0J
0Y
#12500
1!
16
1X
1J
1Y
1u
1N
0Z
1\
1i
1A
1+
#13000
0!
06
0X
0J
0Y
#13500
1!
16
1X
1J
1Y
1t
0u
0N
1O
1Z
0i
0A
1@
0+
1*
#14000
0!
06
0X
0J
0Y
#14500
1!
16
1X
1J
1Y
1u
1N
0Z
0\
0]
0^
1_
1A
1`
1+
#15000
0!
06
0X
0J
0Y
#15500
1!
16
1X
1J
1Y
0t
0s
0r
1q
0u
0N
1R
0Q
0P
0O
1Z
0`
1a
0j
0_
0A
1=
0>
0?
0@
1`
0a
0+
0*
0)
0(
1'
#16000
0!
06
0X
0J
0Y
#16500
1!
16
1X
1J
1Y
1u
1N
0Z
1\
1i
1A
1+
#17000
0!
06
0X
0J
0Y
#17500
1!
16
1X
1J
1Y
1t
0u
0N
1O
1Z
0i
0A
1@
0+
1*
#18000
0!
06
0X
0J
0Y
#18500
1!
16
1X
1J
1Y
1u
1N
0Z
0\
1]
1A
1+
#19000
0!
06
0X
0J
0Y
#19500
1!
16
1X
1J
1Y
0t
1s
0u
0N
1P
0O
1Z
0A
1?
0@
0+
0*
1)
#20000
0!
06
0X
0J
0Y
#20500
1!
16
1X
1J
1Y
1u
1N
0Z
1\
1i
1A
1+
#21000
0!
06
0X
0J
0Y
#21500
1!
16
1X
1J
1Y
1t
0u
0N
1O
1Z
0i
0A
1@
0+
1*
#22000
0!
06
0X
0J
0Y
#22500
1!
16
1X
1J
1Y
1u
1N
0Z
0\
0]
1^
1A
1+
#23000
0!
06
0X
0J
0Y
#23500
1!
16
1X
1J
1Y
0t
0s
1r
0u
0N
1Q
0P
0O
1Z
0A
1>
0?
0@
0+
0*
0)
1(
#24000
0!
06
0X
0J
0Y
#24500
1!
16
1X
1J
1Y
1u
1N
0Z
1\
1i
1A
1+
#25000
0!
06
0X
0J
0Y
#25500
1!
16
1X
1J
1Y
1t
0u
0N
1O
1Z
0i
0A
1@
0+
1*
#26000
0!
06
0X
0J
0Y
#26500
1!
16
1X
1J
1Y
1u
1N
0Z
0\
1]
1A
1+
#27000
0!
06
0X
0J
0Y
#27500
1!
16
1X
1J
1Y
0t
1s
0u
0N
1P
0O
1Z
0A
1?
0@
0+
0*
1)
#28000
0!
06
0X
0J
0Y
#28500
1!
16
1X
1J
1Y
1u
1N
0Z
1\
1i
1A
1+
#29000
0!
06
0X
0J
0Y
#29500
1!
16
1X
1J
1Y
1t
0u
0N
1O
1Z
0i
0A
1@
0+
1*
#30000
0!
06
0X
0J
0Y
#30500
1!
16
1X
1J
1Y
1u
1N
0Z
0\
0]
0^
1_
1A
0`
1a
1+
#31000
0!
06
0X
0J
0Y
#31500
1!
16
1X
1J
1Y
0t
0s
0r
0q
1p
0u
0N
1S
0R
0Q
0P
0O
1Z
1`
0_
0A
1<
0=
0>
0?
0@
0`
0+
0*
0)
0(
0'
1&
#32000
0!
06
0X
0J
0Y
#32500
1!
16
1X
1J
1Y
1u
1N
0Z
1\
1i
1A
1+
#33000
0!
06
0X
0J
0Y
#33500
1!
16
1X
1J
1Y
1t
0u
0N
1O
1Z
0i
0A
1@
0+
1*
#34000
0!
06
0X
0J
0Y
#34500
1!
16
1X
1J
1Y
1u
1N
0Z
0\
1]
1A
1+
#35000
0!
06
0X
0J
0Y
#35500
1!
16
1X
1J
1Y
0t
1s
0u
0N
1P
0O
1Z
0A
1?
0@
0+
0*
1)
#36000
0!
06
0X
0J
0Y
#36500
1!
16
1X
1J
1Y
1u
1N
0Z
1\
1i
1A
1+
#37000
0!
06
0X
0J
0Y
#37500
1!
16
1X
1J
1Y
1t
0u
0N
1O
1Z
0i
0A
1@
0+
1*
#38000
0!
06
0X
0J
0Y
#38500
1!
16
1X
1J
1Y
1u
1N
0Z
0\
0]
1^
1A
1+
#39000
0!
06
0X
0J
0Y
#39500
1!
16
1X
1J
1Y
0t
0s
1r
0u
0N
1Q
0P
0O
1Z
0A
1>
0?
0@
0+
0*
0)
1(
#40000
0!
06
0X
0J
0Y
#40500
1!
16
1X
1J
1Y
1u
1N
0Z
1\
1i
1A
1+
#41000
0!
06
0X
0J
0Y
#41500
1!
16
1X
1J
1Y
1t
0u
0N
1O
1Z
0i
0A
1@
0+
1*
#42000
0!
06
0X
0J
0Y
#42500
1!
16
1X
1J
1Y
1u
1N
0Z
0\
1]
1A
1+
#43000
0!
06
0X
0J
0Y
#43500
1!
16
1X
1J
1Y
0t
1s
0u
0N
1P
0O
1Z
0A
1?
0@
0+
0*
1)
#44000
0!
06
0X
0J
0Y
#44500
1!
16
1X
1J
1Y
1u
1N
0Z
1\
1i
1A
1+
#45000
0!
06
0X
0J
0Y
#45500
1!
16
1X
1J
1Y
1t
0u
0N
1O
1Z
0i
0A
1@
0+
1*
#46000
0!
06
0X
0J
0Y
#46500
1!
16
1X
1J
1Y
1u
1N
0Z
0\
0]
0^
1_
1A
1`
1+
#47000
0!
06
0X
0J
0Y
#47500
1!
16
1X
1J
1Y
0t
0s
0r
1q
0u
0N
1R
0Q
0P
0O
1Z
0`
0a
1b
0_
0A
1=
0>
0?
0@
1`
1a
0b
0+
0*
0)
0(
1'
#48000
0!
06
0X
0J
0Y
#48500
1!
16
1X
1J
1Y
1u
1N
0Z
1\
1i
1A
1+
#49000
0!
06
0X
0J
0Y
#49500
1!
16
1X
1J
1Y
1t
0u
0N
1O
1Z
0i
0A
1@
0+
1*
#50000
0!
06
0X
0J
0Y
#50500
1!
16
1X
1J
1Y
1u
1N
0Z
0\
1]
1A
1+
#51000
0!
06
0X
0J
0Y
#51500
1!
16
1X
1J
1Y
0t
1s
0u
0N
1P
0O
1Z
0A
1?
0@
0+
0*
1)
#52000
0!
06
0X
0J
0Y
#52500
1!
16
1X
1J
1Y
1u
1N
0Z
1\
1i
1A
1+
#53000
0!
06
0X
0J
0Y
#53500
1!
16
1X
1J
1Y
1t
0u
0N
1O
1Z
0i
0A
1@
0+
1*
#54000
0!
06
0X
0J
0Y
#54500
1!
16
1X
1J
1Y
1u
1N
0Z
0\
0]
1^
1A
1+
#55000
0!
06
0X
0J
0Y
#55500
1!
16
1X
1J
1Y
0t
0s
1r
0u
0N
1Q
0P
0O
1Z
0A
1>
0?
0@
0+
0*
0)
1(
#56000
0!
06
0X
0J
0Y
#56500
1!
16
1X
1J
1Y
1u
1N
0Z
1\
1i
1A
1+
#57000
0!
06
0X
0J
0Y
#57500
1!
16
1X
1J
1Y
1t
0u
0N
1O
1Z
0i
0A
1@
0+
1*
#58000
0!
06
0X
0J
0Y
#58500
1!
16
1X
1J
1Y
1u
1N
0Z
0\
1]
1A
1+
#59000
0!
06
0X
0J
0Y
#59500
1!
16
1X
1J
1Y
0t
1s
0u
0N
1P
0O
1Z
0A
1?
0@
0+
0*
1)
#60000
0!
06
0X
0J
0Y
#60500
1!
16
1X
1J
1Y
1u
1N
0Z
1\
1i
1A
1+
#61000
0!
06
0X
0J
0Y
#61500
1!
16
1X
1J
1Y
1t
0u
0N
1O
1Z
0i
0A
1@
0+
1*
#62000
0!
06
0X
0J
0Y
#62500
1!
16
1X
1J
1Y
1u
1N
0Z
0\
0]
0^
1_
1A
0`
0a
1b
1+
#63000
0!
06
0X
0J
0Y
#63500
1!
16
1X
1J
1Y
0t
0s
0r
0q
0p
1o
0u
0N
1T
0S
0R
0Q
0P
0O
1Z
1`
0_
0A
1;
0<
0=
0>
0?
0@
0`
0+
0*
0)
0(
0'
0&
1%
#64000
0!
06
0X
0J
0Y
#64500
1!
16
1X
1J
1Y
1u
1N
0Z
1\
1i
1A
1+
#65000
0!
06
0X
0J
0Y
#65500
1!
16
1X
1J
1Y
1t
0u
0N
1O
1Z
0i
0A
1@
0+
1*
#66000
0!
06
0X
0J
0Y
#66500
1!
16
1X
1J
1Y
1u
1N
0Z
0\
1]
1A
1+
#67000
0!
06
0X
0J
0Y
#67500
1!
16
1X
1J
1Y
0t
1s
0u
0N
1P
0O
1Z
0A
1?
0@
0+
0*
1)
#68000
0!
06
0X
0J
0Y
#68500
1!
16
1X
1J
1Y
1u
1N
0Z
1\
1i
1A
1+
#69000
0!
06
0X
0J
0Y
#69500
1!
16
1X
1J
1Y
1t
0u
0N
1O
1Z
0i
0A
1@
0+
1*
#70000
0!
06
0X
0J
0Y
#70500
1!
16
1X
1J
1Y
1u
1N
0Z
0\
0]
1^
1A
1+
#71000
0!
06
0X
0J
0Y
#71500
1!
16
1X
1J
1Y
0t
0s
1r
0u
0N
1Q
0P
0O
1Z
0A
1>
0?
0@
0+
0*
0)
1(
#72000
0!
06
0X
0J
0Y
#72500
1!
16
1X
1J
1Y
1u
1N
0Z
1\
1i
1A
1+
#73000
0!
06
0X
0J
0Y
#73500
1!
16
1X
1J
1Y
1t
0u
0N
1O
1Z
0i
0A
1@
0+
1*
#74000
0!
06
0X
0J
0Y
#74500
1!
16
1X
1J
1Y
1u
1N
0Z
0\
1]
1A
1+
#75000
0!
06
0X
0J
0Y
#75500
1!
16
1X
1J
1Y
0t
1s
0u
0N
1P
0O
1Z
1j
0A
1?
0@
0+
0*
1)
#76000
0!
06
0X
0J
0Y
#76500
1!
16
1X
1J
1Y
1u
1N
0Z
1\
1i
1A
1+
#77000
0!
06
0X
0J
0Y
#77500
1!
16
1X
1J
1Y
1t
0u
0N
1O
1Z
0i
0A
1@
0+
1*
#78000
0!
06
0X
0J
0Y
#78500
1!
16
1X
1J
1Y
1u
1N
0Z
0\
0]
0^
1_
1A
1`
1+
#79000
0!
06
0X
0J
0Y
#79500
1!
16
1X
1J
1Y
0t
0s
0r
1q
0u
0N
1R
0Q
0P
0O
1Z
0`
1a
0j
0_
0A
1=
0>
0?
0@
1`
0a
0+
0*
0)
0(
1'
#80000
0!
06
0X
0J
0Y
#80500
1!
16
1X
1J
1Y
1u
1N
0Z
1\
1i
1A
1+
#81000
0!
06
0X
0J
0Y
#81500
1!
16
1X
1J
1Y
1t
0u
0N
1O
1Z
0i
0A
1@
0+
1*
#82000
0!
06
0X
0J
0Y
#82500
1!
16
1X
1J
1Y
1u
1N
0Z
0\
1]
1A
1+
#83000
0!
06
0X
0J
0Y
#83500
1!
16
1X
1J
1Y
0t
1s
0u
0N
1P
0O
1Z
0A
1?
0@
0+
0*
1)
#84000
0!
06
0X
0J
0Y
#84500
1!
16
1X
1J
1Y
1u
1N
0Z
1\
1i
1A
1+
#85000
0!
06
0X
0J
0Y
#85500
1!
16
1X
1J
1Y
1t
0u
0N
1O
1Z
0i
0A
1@
0+
1*
#86000
0!
06
0X
0J
0Y
#86500
1!
16
1X
1J
1Y
1u
1N
0Z
0\
0]
1^
1A
1+
#87000
0!
06
0X
0J
0Y
#87500
1!
16
1X
1J
1Y
0t
0s
1r
0u
0N
1Q
0P
0O
1Z
0A
1>
0?
0@
0+
0*
0)
1(
#88000
0!
06
0X
0J
0Y
#88500
1!
16
1X
1J
1Y
1u
1N
0Z
1\
1i
1A
1+
#89000
0!
06
0X
0J
0Y
#89500
1!
16
1X
1J
1Y
1t
0u
0N
1O
1Z
0i
0A
1@
0+
1*
#90000
0!
06
0X
0J
0Y
#90500
1!
16
1X
1J
1Y
1u
1N
0Z
0\
1]
1A
1+
#91000
0!
06
0X
0J
0Y
#91500
1!
16
1X
1J
1Y
0t
1s
0u
0N
1P
0O
1Z
0A
1?
0@
0+
0*
1)
#92000
0!
06
0X
0J
0Y
#92500
1!
16
1X
1J
1Y
1u
1N
0Z
1\
1i
1A
1+
#93000
0!
06
0X
0J
0Y
#93500
1!
16
1X
1J
1Y
1t
0u
0N
1O
1Z
0i
0A
1@
0+
1*
#94000
0!
06
0X
0J
0Y
#94500
1!
16
1X
1J
1Y
1u
1N
0Z
0\
0]
0^
1_
1A
0`
1a
1+
#95000
0!
06
0X
0J
0Y
#95500
1!
16
1X
1J
1Y
0t
0s
0r
0q
1p
0u
0N
1S
0R
0Q
0P
0O
1Z
1`
0_
0A
1<
0=
0>
0?
0@
0`
0+
0*
0)
0(
0'
1&
#96000
0!
06
0X
0J
0Y
#96500
1!
16
1X
1J
1Y
1u
1N
0Z
1\
1i
1A
1+
#97000
0!
06
0X
0J
0Y
#97500
1!
16
1X
1J
1Y
1t
0u
0N
1O
1Z
0i
0A
1@
0+
1*
#98000
0!
06
0X
0J
0Y
#98500
1!
16
1X
1J
1Y
1u
1N
0Z
0\
1]
1A
1+
#99000
0!
06
0X
0J
0Y
#99500
1!
16
1X
1J
1Y
0t
1s
0u
0N
1P
0O
1Z
0A
1?
0@
0+
0*
1)
#100000
0!
06
0X
0J
0Y
#100500
1!
16
1X
1J
1Y
1u
1N
0Z
1\
1i
1A
1+
#101000
0!
06
0X
0J
0Y
#101500
1!
16
1X
1J
1Y
1t
0u
0N
1O
1Z
0i
0A
1@
0+
1*
#102000
0!
06
0X
0J
0Y
#102500
1!
16
1X
1J
1Y
1u
1N
0Z
0\
0]
1^
1A
1+
#103000
0!
06
0X
0J
0Y
#103500
1!
16
1X
1J
1Y
0t
0s
1r
0u
0N
1Q
0P
0O
1Z
0A
1>
0?
0@
0+
0*
0)
1(
#104000
0!
06
0X
0J
0Y
#104500
1!
16
1X
1J
1Y
1u
1N
0Z
1\
1i
1A
1+
#105000
0!
06
0X
0J
0Y
#105500
1!
16
1X
1J
1Y
1t
0u
0N
1O
1Z
0i
0A
1@
0+
1*
#106000
0!
06
0X
0J
0Y
#106500
1!
16
1X
1J
1Y
1u
1N
0Z
0\
1]
1A
1+
#107000
0!
06
0X
0J
0Y
#107500
1!
16
1X
1J
1Y
0t
1s
0u
0N
1P
0O
1Z
0A
1?
0@
0+
0*
1)
#108000
0!
06
0X
0J
0Y
#108500
1!
16
1X
1J
1Y
1u
1N
0Z
1\
1i
1A
1+
#109000
0!
06
0X
0J
0Y
#109500
1!
16
1X
1J
1Y
1t
0u
0N
1O
1Z
0i
0A
1@
0+
1*
#110000
0!
06
0X
0J
0Y
#110500
1!
16
1X
1J
1Y
1u
1N
0Z
0\
0]
0^
1_
1A
1`
1+
#111000
0!
06
0X
0J
0Y
#111500
1!
16
1X
1J
1Y
0t
0s
0r
1q
0u
0N
1R
0Q
0P
0O
1Z
0`
0a
0b
1c
0_
0A
1=
0>
0?
0@
1`
1a
1b
0c
1d
0+
0*
0)
0(
1'
0d
#112000
0!
06
0X
0J
0Y
#112500
1!
16
1X
1J
1Y
1u
1N
0Z
1\
1i
1A
1+
#113000
0!
06
0X
0J
0Y
#113500
1!
16
1X
1J
1Y
1t
0u
0N
1O
1Z
0i
0A
1@
0+
1*
#114000
0!
06
0X
0J
0Y
#114500
1!
16
1X
1J
1Y
1u
1N
0Z
0\
1]
1A
1+
#115000
0!
06
0X
0J
0Y
#115500
1!
16
1X
1J
1Y
0t
1s
0u
0N
1P
0O
1Z
0A
1?
0@
0+
0*
1)
#116000
0!
06
0X
0J
0Y
#116500
1!
16
1X
1J
1Y
1u
1N
0Z
1\
1i
1A
1+
#117000
0!
06
0X
0J
0Y
#117500
1!
16
1X
1J
1Y
1t
0u
0N
1O
1Z
0i
0A
1@
0+
1*
#118000
0!
06
0X
0J
0Y
#118500
1!
16
1X
1J
1Y
1u
1N
0Z
0\
0]
1^
1A
1+
#119000
0!
06
0X
0J
0Y
#119500
1!
16
1X
1J
1Y
0t
0s
1r
0u
0N
1Q
0P
0O
1Z
0A
1>
0?
0@
0+
0*
0)
1(
#120000
0!
06
0X
0J
0Y
#120500
1!
16
1X
1J
1Y
1u
1N
0Z
1\
1i
1A
1+
#121000
0!
06
0X
0J
0Y
#121500
1!
16
1X
1J
1Y
1t
0u
0N
1O
1Z
0i
0A
1@
0+
1*
#122000
0!
06
0X
0J
0Y
#122500
1!
16
1X
1J
1Y
1u
1N
0Z
0\
1]
1A
1+
#123000
0!
06
0X
0J
0Y
#123500
1!
16
1X
1J
1Y
0t
1s
0u
0N
1P
0O
1Z
0A
1?
0@
0+
0*
1)
#124000
0!
06
0X
0J
0Y
#124500
1!
16
1X
1J
1Y
1u
1N
0Z
1\
1i
1A
1+
#125000
0!
06
0X
0J
0Y
#125500
1!
16
1X
1J
1Y
1t
0u
0N
1O
1Z
0i
0A
1@
0+
1*
#126000
0!
06
0X
0J
0Y
#126500
1!
16
1X
1J
1Y
1u
1N
0Z
0\
0]
0^
1_
1A
0`
0a
0b
1c
1+
1d
#127000
0!
06
0X
0J
0Y
#127500
1!
16
1X
1J
1Y
0t
0s
0r
0q
0p
0o
1n
0u
0N
1U
0T
0S
0R
0Q
0P
0O
1Z
0d
1e
1`
0c
0_
0A
1:
0;
0<
0=
0>
0?
0@
0`
1d
0e
0+
0*
0)
0(
0'
0&
0%
1$
#128000
0!
06
0X
0J
0Y
#128500
1!
16
1X
1J
1Y
1u
1N
0Z
1\
1i
1A
1+
#129000
0!
06
0X
0J
0Y
#129500
1!
16
1X
1J
1Y
1t
0u
0N
1O
1Z
0i
0A
1@
0+
1*
#130000
0!
06
0X
0J
0Y
#130500
1!
16
1X
1J
1Y
1u
1N
0Z
0\
1]
1A
1+
#131000
0!
06
0X
0J
0Y
#131500
1!
16
1X
1J
1Y
0t
1s
0u
0N
1P
0O
1Z
0A
1?
0@
0+
0*
1)
#132000
0!
06
0X
0J
0Y
#132500
1!
16
1X
1J
1Y
1u
1N
0Z
1\
1i
1A
1+
#133000
0!
06
0X
0J
0Y
#133500
1!
16
1X
1J
1Y
1t
0u
0N
1O
1Z
0i
0A
1@
0+
1*
#134000
0!
06
0X
0J
0Y
#134500
1!
16
1X
1J
1Y
1u
1N
0Z
0\
0]
1^
1A
1+
#135000
0!
06
0X
0J
0Y
#135500
1!
16
1X
1J
1Y
0t
0s
1r
0u
0N
1Q
0P
0O
1Z
0A
1>
0?
0@
0+
0*
0)
1(
#136000
0!
06
0X
0J
0Y
#136500
1!
16
1X
1J
1Y
1u
1N
0Z
1\
1i
1A
1+
#137000
0!
06
0X
0J
0Y
#137500
1!
16
1X
1J
1Y
1t
0u
0N
1O
1Z
0i
0A
1@
0+
1*
#138000
0!
06
0X
0J
0Y
#138500
1!
16
1X
1J
1Y
1u
1N
0Z
0\
1]
1A
1+
#139000
0!
06
0X
0J
0Y
#139500
1!
16
1X
1J
1Y
0t
1s
0u
0N
1P
0O
1Z
1j
0A
1?
0@
0+
0*
1)
#140000
0!
06
0X
0J
0Y
#140500
1!
16
1X
1J
1Y
1u
1N
0Z
1\
1i
1A
1+
#141000
0!
06
0X
0J
0Y
#141500
1!
16
1X
1J
1Y
1t
0u
0N
1O
1Z
0i
0A
1@
0+
1*
#142000
0!
06
0X
0J
0Y
#142500
1!
16
1X
1J
1Y
1u
1N
0Z
0\
0]
0^
1_
1A
1`
1+
#143000
0!
06
0X
0J
0Y
#143500
1!
16
1X
1J
1Y
0t
0s
0r
1q
0u
0N
1R
0Q
0P
0O
1Z
0`
1a
0j
0_
0A
1=
0>
0?
0@
1`
0a
0+
0*
0)
0(
1'
#144000
0!
06
0X
0J
0Y
#144500
1!
16
1X
1J
1Y
1u
1N
0Z
1\
1i
1A
1+
#145000
0!
06
0X
0J
0Y
#145500
1!
16
1X
1J
1Y
1t
0u
0N
1O
1Z
0i
0A
1@
0+
1*
#146000
0!
06
0X
0J
0Y
#146500
1!
16
1X
1J
1Y
1u
1N
0Z
0\
1]
1A
1+
#147000
0!
06
0X
0J
0Y
#147500
1!
16
1X
1J
1Y
0t
1s
0u
0N
1P
0O
1Z
0A
1?
0@
0+
0*
1)
#148000
0!
06
0X
0J
0Y
#148500
1!
16
1X
1J
1Y
1u
1N
0Z
1\
1i
1A
1+
#149000
0!
06
0X
0J
0Y
#149500
1!
16
1X
1J
1Y
1t
0u
0N
1O
1Z
0i
0A
1@
0+
1*
#150000
0!
06
0X
0J
0Y
#150500
1!
16
1X
1J
1Y
1u
1N
0Z
0\
0]
1^
1A
1+
#151000
0!
06
0X
0J
0Y
#151500
1!
16
1X
1J
1Y
0t
0s
1r
0u
0N
1Q
0P
0O
1Z
0A
1>
0?
0@
0+
0*
0)
1(
#152000
0!
06
0X
0J
0Y
#152500
1!
16
1X
1J
1Y
1u
1N
0Z
1\
1i
1A
1+
#153000
0!
06
0X
0J
0Y
#153500
1!
16
1X
1J
1Y
1t
0u
0N
1O
1Z
0i
0A
1@
0+
1*
#154000
0!
06
0X
0J
0Y
#154500
1!
16
1X
1J
1Y
1u
1N
0Z
0\
1]
1A
1+
#155000
0!
06
0X
0J
0Y
#155500
1!
16
1X
1J
1Y
0t
1s
0u
0N
1P
0O
1Z
0A
1?
0@
0+
0*
1)
#156000
0!
06
0X
0J
0Y
#156500
1!
16
1X
1J
1Y
1u
1N
0Z
1\
1i
1A
1+
#157000
0!
06
0X
0J
0Y
#157500
1!
16
1X
1J
1Y
1t
0u
0N
1O
1Z
0i
0A
1@
0+
1*
#158000
0!
06
0X
0J
0Y
#158500
1!
16
1X
1J
1Y
1u
1N
0Z
0\
0]
0^
1_
1A
0`
1a
1+
#159000
0!
06
0X
0J
0Y
#159500
1!
16
1X
1J
1Y
0t
0s
0r
0q
1p
0u
0N
1S
0R
0Q
0P
0O
1Z
1`
0_
0A
1<
0=
0>
0?
0@
0`
0+
0*
0)
0(
0'
1&
#160000
0!
06
0X
0J
0Y
#160500
1!
16
1X
1J
1Y
1u
1N
0Z
1\
1i
1A
1+
#161000
0!
06
0X
0J
0Y
#161500
1!
16
1X
1J
1Y
1t
0u
0N
1O
1Z
0i
0A
1@
0+
1*
#162000
0!
06
0X
0J
0Y
#162500
1!
16
1X
1J
1Y
1u
1N
0Z
0\
1]
1A
1+
#163000
0!
06
0X
0J
0Y
#163500
1!
16
1X
1J
1Y
0t
1s
0u
0N
1P
0O
1Z
0A
1?
0@
0+
0*
1)
#164000
0!
06
0X
0J
0Y
#164500
1!
16
1X
1J
1Y
1u
1N
0Z
1\
1i
1A
1+
#165000
0!
06
0X
0J
0Y
#165500
1!
16
1X
1J
1Y
1t
0u
0N
1O
1Z
0i
0A
1@
0+
1*
#166000
0!
06
0X
0J
0Y
#166500
1!
16
1X
1J
1Y
1u
1N
0Z
0\
0]
1^
1A
1+
#167000
0!
06
0X
0J
0Y
#167500
1!
16
1X
1J
1Y
0t
0s
1r
0u
0N
1Q
0P
0O
1Z
0A
1>
0?
0@
0+
0*
0)
1(
#168000
0!
06
0X
0J
0Y
#168500
1!
16
1X
1J
1Y
1u
1N
0Z
1\
1i
1A
1+
#169000
0!
06
0X
0J
0Y
#169500
1!
16
1X
1J
1Y
1t
0u
0N
1O
1Z
0i
0A
1@
0+
1*
#170000
0!
06
0X
0J
0Y
#170500
1!
16
1X
1J
1Y
1u
1N
0Z
0\
1]
1A
1+
#171000
0!
06
0X
0J
0Y
#171500
1!
16
1X
1J
1Y
0t
1s
0u
0N
1P
0O
1Z
0A
1?
0@
0+
0*
1)
#172000
0!
06
0X
0J
0Y
#172500
1!
16
1X
1J
1Y
1u
1N
0Z
1\
1i
1A
1+
#173000
0!
06
0X
0J
0Y
#173500
1!
16
1X
1J
1Y
1t
0u
0N
1O
1Z
0i
0A
1@
0+
1*
#174000
0!
06
0X
0J
0Y
#174500
1!
16
1X
1J
1Y
1u
1N
0Z
0\
0]
0^
1_
1A
1`
1+
#175000
0!
06
0X
0J
0Y
