MESTADOSVSYNC/simulation/qsim/MESTADOSVSYNC.msim.vcd
$comment
	File created using the following command:
		vcd file MESTADOSVSYNC.msim.vcd -direction
$end
$date
	Wed Mar 06 12:32:20 2024
$end
$version
	ModelSim Version 10.5b
$end
$timescale
	1ps
$end

$scope module mestadosvsync_vhd_vec_tst $end
$var wire 1 ! CLK $end
$var wire 1 " cuenta [9] $end
$var wire 1 # cuenta [8] $end
$var wire 1 $ cuenta [7] $end
$var wire 1 % cuenta [6] $end
$var wire 1 & cuenta [5] $end
$var wire 1 ' cuenta [4] $end
$var wire 1 ( cuenta [3] $end
$var wire 1 ) cuenta [2] $end
$var wire 1 * cuenta [1] $end
$var wire 1 + cuenta [0] $end
$var wire 1 , RST $end
$var wire 1 - START $end
$var wire 1 . VA $end
$var wire 1 / VSYNC $end

$scope module i1 $end
$var wire 1 0 gnd $end
$var wire 1 1 vcc $end
$var wire 1 2 unknown $end
$var wire 1 3 devoe $end
$var wire 1 4 devclrn $end
$var wire 1 5 devpor $end
$var wire 1 6 ww_devoe $end
$var wire 1 7 ww_devclrn $end
$var wire 1 8 ww_devpor $end
$var wire 1 9 ww_RST $end
$var wire 1 : ww_CLK $end
$var wire 1 ; ww_START $end
$var wire 1 < ww_cuenta [9] $end
$var wire 1 = ww_cuenta [8] $end
$var wire 1 > ww_cuenta [7] $end
$var wire 1 ? ww_cuenta [6] $end
$var wire 1 @ ww_cuenta [5] $end
$var wire 1 A ww_cuenta [4] $end
$var wire 1 B ww_cuenta [3] $end
$var wire 1 C ww_cuenta [2] $end
$var wire 1 D ww_cuenta [1] $end
$var wire 1 E ww_cuenta [0] $end
$var wire 1 F ww_VSYNC $end
$var wire 1 G ww_VA $end
$var wire 1 H \~QUARTUS_CREATED_ADC1~_CHSEL_bus\ [4] $end
$var wire 1 I \~QUARTUS_CREATED_ADC1~_CHSEL_bus\ [3] $end
$var wire 1 J \~QUARTUS_CREATED_ADC1~_CHSEL_bus\ [2] $end
$var wire 1 K \~QUARTUS_CREATED_ADC1~_CHSEL_bus\ [1] $end
$var wire 1 L \~QUARTUS_CREATED_ADC1~_CHSEL_bus\ [0] $end
$var wire 1 M \RST~inputclkctrl_INCLK_bus\ [3] $end
$var wire 1 N \RST~inputclkctrl_INCLK_bus\ [2] $end
$var wire 1 O \RST~inputclkctrl_INCLK_bus\ [1] $end
$var wire 1 P \RST~inputclkctrl_INCLK_bus\ [0] $end
$var wire 1 Q \CLK~inputclkctrl_INCLK_bus\ [3] $end
$var wire 1 R \CLK~inputclkctrl_INCLK_bus\ [2] $end
$var wire 1 S \CLK~inputclkctrl_INCLK_bus\ [1] $end
$var wire 1 T \CLK~inputclkctrl_INCLK_bus\ [0] $end
$var wire 1 U \~QUARTUS_CREATED_GND~I_combout\ $end
$var wire 1 V \~QUARTUS_CREATED_UNVM~~busy\ $end
$var wire 1 W \~QUARTUS_CREATED_ADC1~~eoc\ $end
$var wire 1 X \VSYNC~output_o\ $end
$var wire 1 Y \VA~output_o\ $end
$var wire 1 Z \CLK~input_o\ $end
$var wire 1 [ \CLK~inputclkctrl_outclk\ $end
$var wire 1 \ \cuenta[2]~input_o\ $end
$var wire 1 ] \cuenta[0]~input_o\ $end
$var wire 1 ^ \cuenta[5]~input_o\ $end
$var wire 1 _ \cuenta[1]~input_o\ $end
$var wire 1 ` \cuenta[9]~input_o\ $end
$var wire 1 a \Equal0~0_combout\ $end
$var wire 1 b \cuenta[8]~input_o\ $end
$var wire 1 c \cuenta[6]~input_o\ $end
$var wire 1 d \cuenta[4]~input_o\ $end
$var wire 1 e \cuenta[7]~input_o\ $end
$var wire 1 f \Equal3~0_combout\ $end
$var wire 1 g \cuenta[3]~input_o\ $end
$var wire 1 h \Equal0~1_combout\ $end
$var wire 1 i \START~input_o\ $end
$var wire 1 j \Equal3~1_combout\ $end
$var wire 1 k \Selector0~3_combout\ $end
$var wire 1 l \Equal2~0_combout\ $end
$var wire 1 m \Equal1~0_combout\ $end
$var wire 1 n \Equal1~2_combout\ $end
$var wire 1 o \Equal1~1_combout\ $end
$var wire 1 p \Equal0~2_combout\ $end
$var wire 1 q \Selector2~0_combout\ $end
$var wire 1 r \Selector2~1_combout\ $end
$var wire 1 s \RST~input_o\ $end
$var wire 1 t \RST~inputclkctrl_outclk\ $end
$var wire 1 u \EDO.S2~q\ $end
$var wire 1 v \Selector3~0_combout\ $end
$var wire 1 w \Selector3~1_combout\ $end
$var wire 1 x \EDO.S3~q\ $end
$var wire 1 y \Equal3~2_combout\ $end
$var wire 1 z \Selector4~0_combout\ $end
$var wire 1 { \Selector4~1_combout\ $end
$var wire 1 | \EDO.S4~q\ $end
$var wire 1 } \Selector0~2_combout\ $end
$var wire 1 ~ \EDO.IDLE~q\ $end
$var wire 1 !! \Selector1~0_combout\ $end
$var wire 1 "! \EDO.S1~q\ $end
$var wire 1 #! \VSYNC~0_combout\ $end
$var wire 1 $! \ALT_INV_RST~inputclkctrl_outclk\ $end
$var wire 1 %! \ALT_INV_VSYNC~0_combout\ $end
$upscope $end
$upscope $end
$enddefinitions $end
#0
$dumpvars
0!
0,
1-
0.
0/
00
11
x2
13
14
15
16
17
18
09
0:
1;
0F
0G
0U
zV
zW
0X
0Y
0Z
0[
0\
0]
0^
0_
0`
0a
0b
0c
0d
0e
1f
0g
0h
1i
0j
0k
0l
0m
0n
0o
1p
0q
0r
0s
0t
0u
0v
0w
0x
0y
0z
0{
0|
1}
0~
1!!
0"!
1#!
1$!
0%!
0"
0#
0$
0%
0&
0'
0(
0)
0*
0+
0<
0=
0>
0?
0@
0A
0B
0C
0D
0E
1Q
1R
1S
0T
1M
1N
1O
0P
0H
0I
0J
0K
0L
$end
#5000
1!
1:
1Z
1T
1[
1~
1"!
#10000
0!
1+
0:
1E
1]
0Z
0T
1a
1h
0[
1r
0!!
#15000
1!
1:
1Z
1T
1[
1u
0"!
0r
0#!
1q
1%!
1r
1X
1F
1/
#20000
0!
0+
1*
0:
0E
1D
1_
0]
0Z
0T
0a
1m
1n
0h
0[
#25000
1!
1:
1Z
1T
1[
#30000
0!
1+
0:
1E
1]
0Z
0T
0m
0n
0[
#35000
1!
1:
1Z
1T
1[
#40000
0!
0+
0*
1)
0:
0E
0D
1C
1\
0_
0]
0Z
0T
1j
0p
0[
#45000
1!
1:
1Z
1T
1[
#50000
0!
1+
0:
1E
1]
0Z
0T
1a
0j
0[
#55000
1!
1:
1Z
1T
1[
#60000
0!
0+
1*
0:
0E
1D
1_
0]
0Z
0T
0a
1m
0[
#65000
1!
1:
1Z
1T
1[
#70000
0!
1+
0:
1E
1]
0Z
0T
0m
0[
#75000
1!
1:
1Z
1T
1[
#80000
0!
0+
0*
0)
1(
0:
0E
0D
0C
1B
1g
0\
0_
0]
0Z
0T
0[
#85000
1!
1:
1Z
1T
1[
#90000
0!
1+
0:
1E
1]
0Z
0T
1a
0[
#95000
1!
1:
1Z
1T
1[
#100000
0!
0+
1*
0:
0E
1D
1_
0]
0Z
0T
0a
1m
0[
#105000
1!
1:
1Z
1T
1[
#110000
0!
1+
0:
1E
1]
0Z
0T
0m
0[
#115000
1!
1:
1Z
1T
1[
#120000
0!
0+
0*
1)
0:
0E
0D
1C
1\
0_
0]
0Z
0T
1j
0[
#125000
1!
1:
1Z
1T
1[
#130000
0!
1+
0:
1E
1]
0Z
0T
1a
0j
0[
#135000
1!
1:
1Z
1T
1[
#140000
0!
0+
1*
0:
0E
1D
1_
0]
0Z
0T
0a
1m
0[
#145000
1!
1:
1Z
1T
1[
#150000
0!
1+
0:
1E
1]
0Z
0T
0m
0[
#155000
1!
1:
1Z
1T
1[
#160000
0!
0+
0*
0)
0(
1'
0:
0E
0D
0C
0B
1A
1d
0g
0\
0_
0]
0Z
0T
1p
0f
0p
0[
#165000
1!
1:
1Z
1T
1[
#170000
0!
1+
0:
1E
1]
0Z
0T
1a
0[
#175000
1!
1:
1Z
1T
1[
#180000
0!
0+
1*
0:
0E
1D
1_
0]
0Z
0T
0a
1m
0[
#185000
1!
1:
1Z
1T
1[
#190000
0!
1+
0:
1E
1]
0Z
0T
0m
0[
#195000
1!
1:
1Z
1T
1[
#200000
0!
0+
0*
1)
0:
0E
0D
1C
1\
0_
0]
0Z
0T
1j
0[
#205000
1!
1:
1Z
1T
1[
#210000
0!
1+
0:
1E
1]
0Z
0T
1a
0j
0[
#215000
1!
1:
1Z
1T
1[
#220000
0!
0+
1*
0:
0E
1D
1_
0]
0Z
0T
0a
1m
0[
#225000
1!
1:
1Z
1T
1[
#230000
0!
1+
0:
1E
1]
0Z
0T
0m
0[
#235000
1!
1:
1Z
1T
1[
#240000
0!
0+
0*
0)
1(
0:
0E
0D
0C
1B
1g
0\
0_
0]
0Z
0T
0[
#245000
1!
1:
1Z
1T
1[
#250000
0!
1+
0:
1E
1]
0Z
0T
1a
0[
#255000
1!
1:
1Z
1T
1[
#260000
0!
0+
1*
0:
0E
1D
1_
0]
0Z
0T
0a
1m
0[
#265000
1!
1:
1Z
1T
1[
#270000
0!
1+
0:
1E
1]
0Z
0T
0m
0[
#275000
1!
1:
1Z
1T
1[
#280000
0!
0+
0*
1)
0:
0E
0D
1C
1\
0_
0]
0Z
0T
1j
0[
#285000
1!
1:
1Z
1T
1[
#290000
0!
1+
0:
1E
1]
0Z
0T
1a
0j
0[
#295000
1!
1:
1Z
1T
1[
#300000
0!
0+
1*
0:
0E
1D
1_
0]
0Z
0T
0a
1m
0[
#305000
1!
1:
1Z
1T
1[
#310000
0!
1+
0:
1E
1]
0Z
0T
0m
0[
#315000
1!
1:
1Z
1T
1[
#320000
0!
0+
0*
0)
0(
0'
1&
0:
0E
0D
0C
0B
0A
1@
1^
0d
0g
0\
0_
0]
0Z
0T
1f
1o
1p
0[
#325000
1!
1:
1Z
1T
1[
#330000
0!
1+
0:
1E
1]
0Z
0T
0[
#335000
1!
1:
1Z
1T
1[
#340000
0!
0+
1*
0:
0E
1D
1_
0]
0Z
0T
1m
1n
0q
1v
0[
0r
1w
#345000
1!
1:
1Z
1T
1[
0u
1x
1Y
0v
1G
1.
#350000
0!
1+
0:
1E
1]
0Z
0T
0m
0n
0[
#355000
1!
1:
1Z
1T
1[
#360000
0!
0+
0*
1)
0:
0E
0D
1C
1\
0_
0]
0Z
0T
0p
0[
#365000
1!
1:
1Z
1T
1[
#370000
0!
1+
0:
1E
1]
0Z
0T
0[
#375000
1!
1:
1Z
1T
1[
#380000
0!
0+
1*
0:
0E
1D
1_
0]
0Z
0T
1m
0[
#385000
1!
1:
1Z
1T
1[
#390000
0!
1+
0:
1E
1]
0Z
0T
0m
0[
#395000
1!
1:
1Z
1T
1[
#400000
0!
0+
0*
0)
1(
0:
0E
0D
0C
1B
1g
0\
0_
0]
0Z
0T
0[
#405000
1!
1:
1Z
1T
1[
#410000
0!
1+
0:
1E
1]
0Z
0T
0[
#415000
1!
1:
1Z
1T
1[
#420000
0!
0+
1*
0:
0E
1D
1_
0]
0Z
0T
1m
0[
#425000
1!
1:
1Z
1T
1[
#430000
0!
1+
0:
1E
1]
0Z
0T
0m
0[
#435000
1!
1:
1Z
1T
1[
#440000
0!
0+
0*
1)
0:
0E
0D
1C
1\
0_
0]
0Z
0T
0[
#445000
1!
1:
1Z
1T
1[
#450000
0!
1+
0:
1E
1]
0Z
0T
0[
#455000
1!
1:
1Z
1T
1[
#460000
0!
0+
1*
0:
0E
1D
1_
0]
0Z
0T
1m
0[
#465000
1!
1:
1Z
1T
1[
#470000
0!
1+
0:
1E
1]
0Z
0T
0m
0[
#475000
1!
1:
1Z
1T
1[
#480000
0!
0+
0*
0)
0(
1'
0:
0E
0D
0C
0B
1A
1d
0g
0\
0_
0]
0Z
0T
1p
0f
0p
0[
#485000
1!
1:
1Z
1T
1[
#490000
0!
1+
0:
1E
1]
0Z
0T
0[
#495000
1!
1:
1Z
1T
1[
#500000
0!
0+
1*
0:
0E
1D
1_
0]
0Z
0T
1m
0[
#505000
1!
1:
1Z
1T
1[
#510000
0!
1+
0:
1E
1]
0Z
0T
0m
0[
#515000
1!
1:
1Z
1T
1[
#520000
0!
0+
0*
1)
0:
0E
0D
1C
1\
0_
0]
0Z
0T
0[
#525000
1!
1:
1Z
1T
1[
#530000
0!
1+
0:
1E
1]
0Z
0T
0[
#535000
1!
1:
1Z
1T
1[
#540000
0!
0+
1*
0:
0E
1D
1_
0]
0Z
0T
1m
0[
#545000
1!
1:
1Z
1T
1[
#550000
0!
1+
0:
1E
1]
0Z
0T
0m
0[
#555000
1!
1:
1Z
1T
1[
#560000
0!
0+
0*
0)
1(
0:
0E
0D
0C
1B
1g
0\
0_
0]
0Z
0T
0[
#565000
1!
1:
1Z
1T
1[
#570000
0!
1+
0:
1E
1]
0Z
0T
0[
#575000
1!
1:
1Z
1T
1[
#580000
0!
0+
1*
0:
0E
1D
1_
0]
0Z
0T
1m
0[
#585000
1!
1:
1Z
1T
1[
#590000
0!
1+
0:
1E
1]
0Z
0T
0m
0[
#595000
1!
1:
1Z
1T
1[
#600000
0!
0+
0*
1)
0:
0E
0D
1C
1\
0_
0]
0Z
0T
0[
#605000
1!
1:
1Z
1T
1[
#610000
0!
1+
0:
1E
1]
0Z
0T
0[
#615000
1!
1:
1Z
1T
1[
#620000
0!
0+
1*
0:
0E
1D
1_
0]
0Z
0T
1m
0[
#625000
1!
1:
1Z
1T
1[
#630000
0!
1+
0:
1E
1]
0Z
0T
0m
0[
#635000
1!
1:
1Z
1T
1[
#640000
0!
0+
0*
0)
0(
0'
0&
1%
0:
0E
0D
0C
0B
0A
0@
1?
1c
0^
0d
0g
0\
0_
0]
0Z
0T
0o
0[
#645000
1!
1:
1Z
1T
1[
#650000
0!
1+
0:
1E
1]
0Z
0T
1a
0[
#655000
1!
1:
1Z
1T
1[
#660000
0!
0+
1*
0:
0E
1D
1_
0]
0Z
0T
0a
1m
0[
#665000
1!
1:
1Z
1T
1[
#670000
0!
1+
0:
1E
1]
0Z
0T
0m
0[
#675000
1!
1:
1Z
1T
1[
#680000
0!
0+
0*
1)
0:
0E
0D
1C
1\
0_
0]
0Z
0T
1j
0[
#685000
1!
1:
1Z
1T
1[
#690000
0!
1+
0:
1E
1]
0Z
0T
1a
0j
0[
#695000
1!
1:
1Z
1T
1[
#700000
0!
0+
1*
0:
0E
1D
1_
0]
0Z
0T
0a
1m
0[
#705000
1!
1:
1Z
1T
1[
#710000
0!
1+
0:
1E
1]
0Z
0T
0m
0[
#715000
1!
1:
1Z
1T
1[
#720000
0!
0+
0*
0)
1(
0:
0E
0D
0C
1B
1g
0\
0_
0]
0Z
0T
0[
#725000
1!
1:
1Z
1T
1[
#730000
0!
1+
0:
1E
1]
0Z
0T
1a
0[
#735000
1!
1:
1Z
1T
1[
#740000
0!
0+
1*
0:
0E
1D
1_
0]
0Z
0T
0a
1m
0[
#745000
1!
1:
1Z
1T
1[
#750000
0!
1+
0:
1E
1]
0Z
0T
0m
0[
#755000
1!
1:
1Z
1T
1[
#760000
0!
0+
0*
1)
0:
0E
0D
1C
1\
0_
0]
0Z
0T
1j
0[
#765000
1!
1:
1Z
1T
1[
#770000
0!
1+
0:
1E
1]
0Z
0T
1a
0j
0[
#775000
1!
1:
1Z
1T
1[
#780000
0!
0+
1*
0:
0E
1D
1_
0]
0Z
0T
0a
1m
0[
#785000
1!
1:
1Z
1T
1[
#790000
0!
1+
0:
1E
1]
0Z
0T
0m
0[
#795000
1!
1:
1Z
1T
1[
#800000
0!
0+
0*
0)
0(
1'
0:
0E
0D
0C
0B
1A
1d
0g
0\
0_
0]
0Z
0T
0[
#805000
1!
1:
1Z
1T
1[
#810000
0!
1+
0:
1E
1]
0Z
0T
1a
0[
#815000
1!
1:
1Z
1T
1[
#820000
0!
0+
1*
0:
0E
1D
1_
0]
0Z
0T
0a
1m
0[
#825000
1!
1:
1Z
1T
1[
#830000
0!
1+
0:
1E
1]
0Z
0T
0m
0[
#835000
1!
1:
1Z
1T
1[
#840000
0!
0+
0*
1)
0:
0E
0D
1C
1\
0_
0]
0Z
0T
1j
0[
#845000
1!
1:
1Z
1T
1[
#850000
0!
1+
0:
1E
1]
0Z
0T
1a
0j
0[
#855000
1!
1:
1Z
1T
1[
#860000
0!
0+
1*
0:
0E
1D
1_
0]
0Z
0T
0a
1m
0[
#865000
1!
1:
1Z
1T
1[
#870000
0!
1+
0:
1E
1]
0Z
0T
0m
0[
#875000
1!
1:
1Z
1T
1[
#880000
0!
0+
0*
0)
1(
0:
0E
0D
0C
1B
1g
0\
0_
0]
0Z
0T
0[
#885000
1!
1:
1Z
1T
1[
#890000
0!
1+
0:
1E
1]
0Z
0T
1a
0[
#895000
1!
1:
1Z
1T
1[
#900000
0!
0+
1*
0:
0E
1D
1_
0]
0Z
0T
0a
1m
0[
#905000
1!
1:
1Z
1T
1[
#910000
0!
1+
0:
1E
1]
0Z
0T
0m
0[
#915000
1!
1:
1Z
1T
1[
#920000
0!
0+
0*
1)
0:
0E
0D
1C
1\
0_
0]
0Z
0T
1j
0[
#925000
1!
1:
1Z
1T
1[
#930000
0!
1+
0:
1E
1]
0Z
0T
1a
0j
0[
#935000
1!
1:
1Z
1T
1[
#940000
0!
0+
1*
0:
0E
1D
1_
0]
0Z
0T
0a
1m
0[
#945000
1!
1:
1Z
1T
1[
#950000
0!
1+
0:
1E
1]
0Z
0T
0m
0[
#955000
1!
1:
1Z
1T
1[
#960000
0!
0+
0*
0)
0(
0'
1&
0:
0E
0D
0C
0B
0A
1@
1^
0d
0g
0\
0_
0]
0Z
0T
1o
0[
#965000
1!
1:
1Z
1T
1[
#970000
0!
1+
0:
1E
1]
0Z
0T
0[
#975000
1!
1:
1Z
1T
1[
#980000
0!
0+
1*
0:
0E
1D
1_
0]
0Z
0T
1m
0[
#985000
1!
1:
1Z
1T
1[
#990000
0!
1+
0:
1E
1]
0Z
0T
0m
0[
#995000
1!
1:
1Z
1T
1[
