DIVFREQ2/simulation/qsim/DIVFREQ2.msim.vcd
$comment
	File created using the following command:
		vcd file DIVFREQ2.msim.vcd -direction
$end
$date
	Wed Mar 06 09:41:16 2024
$end
$version
	ModelSim Version 10.5b
$end
$timescale
	1ps
$end

$scope module divfreq2_vhd_vec_tst $end
$var wire 1 ! clk $end
$var wire 1 " F $end
$var wire 1 # reset $end

$scope module i1 $end
$var wire 1 $ gnd $end
$var wire 1 % vcc $end
$var wire 1 & unknown $end
$var wire 1 ' devoe $end
$var wire 1 ( devclrn $end
$var wire 1 ) devpor $end
$var wire 1 * ww_devoe $end
$var wire 1 + ww_devclrn $end
$var wire 1 , ww_devpor $end
$var wire 1 - ww_clk $end
$var wire 1 . ww_reset $end
$var wire 1 / ww_F $end
$var wire 1 0 \~QUARTUS_CREATED_ADC1~_CHSEL_bus\ [4] $end
$var wire 1 1 \~QUARTUS_CREATED_ADC1~_CHSEL_bus\ [3] $end
$var wire 1 2 \~QUARTUS_CREATED_ADC1~_CHSEL_bus\ [2] $end
$var wire 1 3 \~QUARTUS_CREATED_ADC1~_CHSEL_bus\ [1] $end
$var wire 1 4 \~QUARTUS_CREATED_ADC1~_CHSEL_bus\ [0] $end
$var wire 1 5 \~QUARTUS_CREATED_GND~I_combout\ $end
$var wire 1 6 \~QUARTUS_CREATED_UNVM~~busy\ $end
$var wire 1 7 \~QUARTUS_CREATED_ADC1~~eoc\ $end
$var wire 1 8 \F~output_o\ $end
$var wire 1 9 \clk~input_o\ $end
$var wire 1 : \I0|q~0_combout\ $end
$var wire 1 ; \reset~input_o\ $end
$var wire 1 < \I0|q~q\ $end
$var wire 1 = \ALT_INV_reset~input_o\ $end
$upscope $end
$upscope $end
$enddefinitions $end
#0
$dumpvars
0!
0"
0#
0$
1%
x&
1'
1(
1)
1*
1+
1,
0-
0.
0/
05
z6
z7
08
09
1:
0;
0<
1=
00
01
02
03
04
$end
#5000
1!
1-
19
1<
18
0:
1/
1"
#10000
0!
0-
09
#15000
1!
1-
19
0<
08
1:
0/
0"
#20000
0!
0-
09
#25000
1!
1-
19
1<
18
0:
1/
1"
#30000
0!
0-
09
#35000
1!
1-
19
0<
08
1:
0/
0"
#40000
0!
0-
09
#45000
1!
1-
19
1<
18
0:
1/
1"
#50000
0!
0-
09
#55000
1!
1-
19
0<
08
1:
0/
0"
#60000
0!
0-
09
#65000
1!
1-
19
1<
18
0:
1/
1"
#70000
0!
0-
09
#75000
1!
1-
19
0<
08
1:
0/
0"
#80000
0!
0-
09
#85000
1!
1-
19
1<
18
0:
1/
1"
#90000
0!
0-
09
#95000
1!
1-
19
0<
08
1:
0/
0"
#100000
0!
0-
09
#105000
1!
1-
19
1<
18
0:
1/
1"
#110000
0!
0-
09
#115000
1!
1-
19
0<
08
1:
0/
0"
#120000
0!
0-
09
#125000
1!
1-
19
1<
18
0:
1/
1"
#130000
0!
0-
09
#135000
1!
1-
19
0<
08
1:
0/
0"
#140000
0!
0-
09
#145000
1!
1-
19
1<
18
0:
1/
1"
#150000
0!
0-
09
#155000
1!
1-
19
0<
08
1:
0/
0"
#160000
0!
0-
09
#165000
1!
1-
19
1<
18
0:
1/
1"
#170000
0!
0-
09
#175000
1!
1-
19
0<
08
1:
0/
0"
#180000
0!
0-
09
#185000
1!
1-
19
1<
18
0:
1/
1"
#190000
0!
0-
09
#195000
1!
1-
19
0<
08
1:
0/
0"
#200000
0!
0-
09
#205000
1!
1-
19
1<
18
0:
1/
1"
#210000
0!
0-
09
#215000
1!
1-
19
0<
08
1:
0/
0"
#220000
0!
0-
09
#225000
1!
1-
19
1<
18
0:
1/
1"
#230000
0!
0-
09
#235000
1!
1-
19
0<
08
1:
0/
0"
#240000
0!
0-
09
#245000
1!
1-
19
1<
18
0:
1/
1"
#250000
0!
0-
09
#255000
1!
1-
19
0<
08
1:
0/
0"
#260000
0!
0-
09
#265000
1!
1-
19
1<
18
0:
1/
1"
#270000
0!
0-
09
#275000
1!
1-
19
0<
08
1:
0/
0"
#280000
0!
0-
09
#285000
1!
1-
19
1<
18
0:
1/
1"
#290000
0!
0-
09
#295000
1!
1-
19
0<
08
1:
0/
0"
#300000
0!
0-
09
#305000
1!
1-
19
1<
18
0:
1/
1"
#310000
0!
0-
09
#315000
1!
1-
19
0<
08
1:
0/
0"
#320000
0!
0-
09
#325000
1!
1-
19
1<
18
0:
1/
1"
#330000
0!
0-
09
#335000
1!
1-
19
0<
08
1:
0/
0"
#340000
0!
0-
09
#345000
1!
1-
19
1<
18
0:
1/
1"
#350000
0!
0-
09
#355000
1!
1-
19
0<
08
1:
0/
0"
#360000
0!
0-
09
#365000
1!
1-
19
1<
18
0:
1/
1"
#370000
0!
0-
09
#375000
1!
1-
19
0<
08
1:
0/
0"
#380000
0!
0-
09
#385000
1!
1-
19
1<
18
0:
1/
1"
#390000
0!
0-
09
#395000
1!
1-
19
0<
08
1:
0/
0"
#400000
0!
0-
09
#405000
1!
1-
19
1<
18
0:
1/
1"
#410000
0!
0-
09
#415000
1!
1-
19
0<
08
1:
0/
0"
#420000
0!
0-
09
#425000
1!
1-
19
1<
18
0:
1/
1"
#430000
0!
0-
09
#435000
1!
1-
19
0<
08
1:
0/
0"
#440000
0!
0-
09
#445000
1!
1-
19
1<
18
0:
1/
1"
#450000
0!
0-
09
#455000
1!
1-
19
0<
08
1:
0/
0"
#460000
0!
0-
09
#465000
1!
1-
19
1<
18
0:
1/
1"
#470000
0!
0-
09
#475000
1!
1-
19
0<
08
1:
0/
0"
#480000
0!
0-
09
#485000
1!
1-
19
1<
18
0:
1/
1"
#490000
0!
0-
09
#495000
1!
1-
19
0<
08
1:
0/
0"
#500000
0!
0-
09
#505000
1!
1-
19
1<
18
0:
1/
1"
#510000
0!
0-
09
#515000
1!
1-
19
0<
08
1:
0/
0"
#520000
0!
0-
09
#525000
1!
1-
19
1<
18
0:
1/
1"
#530000
0!
0-
09
#535000
1!
1-
19
0<
08
1:
0/
0"
#540000
0!
0-
09
#545000
1!
1-
19
1<
18
0:
1/
1"
#550000
0!
0-
09
#555000
1!
1-
19
0<
08
1:
0/
0"
#560000
0!
0-
09
#565000
1!
1-
19
1<
18
0:
1/
1"
#570000
0!
0-
09
#575000
1!
1-
19
0<
08
1:
0/
0"
#580000
0!
0-
09
#585000
1!
1-
19
1<
18
0:
1/
1"
#590000
0!
0-
09
#595000
1!
1-
19
0<
08
1:
0/
0"
#600000
0!
0-
09
#605000
1!
1-
19
1<
18
0:
1/
1"
#610000
0!
0-
09
#615000
1!
1-
19
0<
08
1:
0/
0"
#620000
0!
0-
09
#625000
1!
1-
19
1<
18
0:
1/
1"
#630000
0!
0-
09
#635000
1!
1-
19
0<
08
1:
0/
0"
#640000
0!
0-
09
#645000
1!
1-
19
1<
18
0:
1/
1"
#650000
0!
0-
09
#655000
1!
1-
19
0<
08
1:
0/
0"
#660000
0!
0-
09
#665000
1!
1-
19
1<
18
0:
1/
1"
#670000
0!
0-
09
#675000
1!
1-
19
0<
08
1:
0/
0"
#680000
0!
0-
09
#685000
1!
1-
19
1<
18
0:
1/
1"
#690000
0!
0-
09
#695000
1!
1-
19
0<
08
1:
0/
0"
#700000
0!
0-
09
#705000
1!
1-
19
1<
18
0:
1/
1"
#710000
0!
0-
09
#715000
1!
1-
19
0<
08
1:
0/
0"
#720000
0!
0-
09
#725000
1!
1-
19
1<
18
0:
1/
1"
#730000
0!
0-
09
#735000
1!
1-
19
0<
08
1:
0/
0"
#740000
0!
0-
09
#745000
1!
1-
19
1<
18
0:
1/
1"
#750000
0!
0-
09
#755000
1!
1-
19
0<
08
1:
0/
0"
#760000
0!
0-
09
#765000
1!
1-
19
1<
18
0:
1/
1"
#770000
0!
0-
09
#775000
1!
1-
19
0<
08
1:
0/
0"
#780000
0!
0-
09
#785000
1!
1-
19
1<
18
0:
1/
1"
#790000
0!
0-
09
#795000
1!
1-
19
0<
08
1:
0/
0"
#800000
0!
0-
09
#805000
1!
1-
19
1<
18
0:
1/
1"
#810000
0!
0-
09
#815000
1!
1-
19
0<
08
1:
0/
0"
#820000
0!
0-
09
#825000
1!
1-
19
1<
18
0:
1/
1"
#830000
0!
0-
09
#835000
1!
1-
19
0<
08
1:
0/
0"
#840000
0!
0-
09
#845000
1!
1-
19
1<
18
0:
1/
1"
#850000
0!
0-
09
#855000
1!
1-
19
0<
08
1:
0/
0"
#860000
0!
0-
09
#865000
1!
1-
19
1<
18
0:
1/
1"
#870000
0!
0-
09
#875000
1!
1-
19
0<
08
1:
0/
0"
#880000
0!
0-
09
#885000
1!
1-
19
1<
18
0:
1/
1"
#890000
0!
0-
09
#895000
1!
1-
19
0<
08
1:
0/
0"
#900000
0!
0-
09
#905000
1!
1-
19
1<
18
0:
1/
1"
#910000
0!
0-
09
#915000
1!
1-
19
0<
08
1:
0/
0"
#920000
0!
0-
09
#925000
1!
1-
19
1<
18
0:
1/
1"
#930000
0!
0-
09
#935000
1!
1-
19
0<
08
1:
0/
0"
#940000
0!
0-
09
#945000
1!
1-
19
1<
18
0:
1/
1"
#950000
0!
0-
09
#955000
1!
1-
19
0<
08
1:
0/
0"
#960000
0!
0-
09
#965000
1!
1-
19
1<
18
0:
1/
1"
#970000
0!
0-
09
#975000
1!
1-
19
0<
08
1:
0/
0"
#980000
0!
0-
09
#985000
1!
1-
19
1<
18
0:
1/
1"
#990000
0!
0-
09
#995000
1!
1-
19
0<
08
1:
0/
0"
