CONTA10BITS/simulation/qsim/CONTA10BITS.msim.vcd
$comment
	File created using the following command:
		vcd file CONTA10BITS.msim.vcd -direction
$end
$date
	Wed Mar 06 10:23:43 2024
$end
$version
	ModelSim Version 10.5b
$end
$timescale
	1ps
$end

$scope module conta10bits_vhd_vec_tst $end
$var wire 1 ! CLK $end
$var wire 1 " O [9] $end
$var wire 1 # O [8] $end
$var wire 1 $ O [7] $end
$var wire 1 % O [6] $end
$var wire 1 & O [5] $end
$var wire 1 ' O [4] $end
$var wire 1 ( O [3] $end
$var wire 1 ) O [2] $end
$var wire 1 * O [1] $end
$var wire 1 + O [0] $end
$var wire 1 , RST $end

$scope module i1 $end
$var wire 1 - gnd $end
$var wire 1 . vcc $end
$var wire 1 / unknown $end
$var wire 1 0 devoe $end
$var wire 1 1 devclrn $end
$var wire 1 2 devpor $end
$var wire 1 3 ww_devoe $end
$var wire 1 4 ww_devclrn $end
$var wire 1 5 ww_devpor $end
$var wire 1 6 ww_CLK $end
$var wire 1 7 ww_RST $end
$var wire 1 8 ww_O [9] $end
$var wire 1 9 ww_O [8] $end
$var wire 1 : ww_O [7] $end
$var wire 1 ; ww_O [6] $end
$var wire 1 < ww_O [5] $end
$var wire 1 = ww_O [4] $end
$var wire 1 > ww_O [3] $end
$var wire 1 ? ww_O [2] $end
$var wire 1 @ ww_O [1] $end
$var wire 1 A ww_O [0] $end
$var wire 1 B \~QUARTUS_CREATED_ADC1~_CHSEL_bus\ [4] $end
$var wire 1 C \~QUARTUS_CREATED_ADC1~_CHSEL_bus\ [3] $end
$var wire 1 D \~QUARTUS_CREATED_ADC1~_CHSEL_bus\ [2] $end
$var wire 1 E \~QUARTUS_CREATED_ADC1~_CHSEL_bus\ [1] $end
$var wire 1 F \~QUARTUS_CREATED_ADC1~_CHSEL_bus\ [0] $end
$var wire 1 G \RST~inputclkctrl_INCLK_bus\ [3] $end
$var wire 1 H \RST~inputclkctrl_INCLK_bus\ [2] $end
$var wire 1 I \RST~inputclkctrl_INCLK_bus\ [1] $end
$var wire 1 J \RST~inputclkctrl_INCLK_bus\ [0] $end
$var wire 1 K \CLK~inputclkctrl_INCLK_bus\ [3] $end
$var wire 1 L \CLK~inputclkctrl_INCLK_bus\ [2] $end
$var wire 1 M \CLK~inputclkctrl_INCLK_bus\ [1] $end
$var wire 1 N \CLK~inputclkctrl_INCLK_bus\ [0] $end
$var wire 1 O \~QUARTUS_CREATED_GND~I_combout\ $end
$var wire 1 P \~QUARTUS_CREATED_UNVM~~busy\ $end
$var wire 1 Q \~QUARTUS_CREATED_ADC1~~eoc\ $end
$var wire 1 R \O[0]~output_o\ $end
$var wire 1 S \O[1]~output_o\ $end
$var wire 1 T \O[2]~output_o\ $end
$var wire 1 U \O[3]~output_o\ $end
$var wire 1 V \O[4]~output_o\ $end
$var wire 1 W \O[5]~output_o\ $end
$var wire 1 X \O[6]~output_o\ $end
$var wire 1 Y \O[7]~output_o\ $end
$var wire 1 Z \O[8]~output_o\ $end
$var wire 1 [ \O[9]~output_o\ $end
$var wire 1 \ \CLK~input_o\ $end
$var wire 1 ] \CLK~inputclkctrl_outclk\ $end
$var wire 1 ^ \Q[0]~10_combout\ $end
$var wire 1 _ \RST~input_o\ $end
$var wire 1 ` \RST~inputclkctrl_outclk\ $end
$var wire 1 a \Q[1]~0_combout\ $end
$var wire 1 b \Q[2]~1_combout\ $end
$var wire 1 c \Q[3]~2_combout\ $end
$var wire 1 d \I0|I3|Cout~combout\ $end
$var wire 1 e \Q[4]~3_combout\ $end
$var wire 1 f \Q[5]~4_combout\ $end
$var wire 1 g \Q[6]~5_combout\ $end
$var wire 1 h \I0|I6|Cout~combout\ $end
$var wire 1 i \Q[7]~6_combout\ $end
$var wire 1 j \Q[8]~7_combout\ $end
$var wire 1 k \Q[8]~8_combout\ $end
$var wire 1 l \Q[9]~9_combout\ $end
$var wire 1 m Q [9] $end
$var wire 1 n Q [8] $end
$var wire 1 o Q [7] $end
$var wire 1 p Q [6] $end
$var wire 1 q Q [5] $end
$var wire 1 r Q [4] $end
$var wire 1 s Q [3] $end
$var wire 1 t Q [2] $end
$var wire 1 u Q [1] $end
$var wire 1 v Q [0] $end
$var wire 1 w \ALT_INV_RST~inputclkctrl_outclk\ $end
$upscope $end
$upscope $end
$enddefinitions $end
#0
$dumpvars
0!
0,
0-
1.
x/
10
11
12
13
14
15
06
07
0O
zP
zQ
0R
0S
0T
0U
0V
0W
0X
0Y
0Z
0[
0\
0]
1^
0_
0`
0a
0b
0c
0d
0e
0f
0g
0h
0i
1j
0k
0l
1w
08
09
0:
0;
0<
0=
0>
0?
0@
0A
0m
0n
0o
0p
0q
0r
0s
0t
0u
0v
1K
1L
1M
0N
1G
1H
1I
0J
0B
0C
0D
0E
0F
0"
0#
0$
0%
0&
0'
0(
0)
0*
0+
$end
#2500
1!
16
1\
1N
1]
1v
1R
0^
1a
1A
1+
#5000
0!
06
0\
0N
0]
#7500
1!
16
1\
1N
1]
0v
1u
1S
0R
1^
1@
0A
0+
1*
#10000
0!
06
0\
0N
0]
#12500
1!
16
1\
1N
1]
1v
1R
0^
0a
1b
1A
1+
#15000
0!
06
0\
0N
0]
#17500
1!
16
1\
1N
1]
0v
0u
1t
1T
0S
0R
1^
1?
0@
0A
0+
0*
1)
#20000
0!
06
0\
0N
0]
#22500
1!
16
1\
1N
1]
1v
1R
0^
1a
1A
1+
#25000
0!
06
0\
0N
0]
#27500
1!
16
1\
1N
1]
0v
1u
1S
0R
1^
1@
0A
0+
1*
#30000
0!
06
0\
0N
0]
#32500
1!
16
1\
1N
1]
1v
1R
0^
0a
0b
1c
1A
1+
#35000
0!
06
0\
0N
0]
#37500
1!
16
1\
1N
1]
0v
0u
0t
1s
1U
0T
0S
0R
1^
1>
0?
0@
0A
0+
0*
0)
1(
#40000
0!
06
0\
0N
0]
#42500
1!
16
1\
1N
1]
1v
1R
0^
1a
1A
1+
#45000
0!
06
0\
0N
0]
#47500
1!
16
1\
1N
1]
0v
1u
1S
0R
1^
1@
0A
0+
1*
#50000
0!
06
0\
0N
0]
#52500
1!
16
1\
1N
1]
1v
1R
0^
0a
1b
1A
1+
#55000
0!
06
0\
0N
0]
#57500
1!
16
1\
1N
1]
0v
0u
1t
1T
0S
0R
1^
1?
0@
0A
0+
0*
1)
#60000
0!
06
0\
0N
0]
#62500
1!
16
1\
1N
1]
1v
1R
0^
1a
1A
1+
#65000
0!
06
0\
0N
0]
#67500
1!
16
1\
1N
1]
0v
1u
1S
0R
1^
1@
0A
0+
1*
#70000
0!
06
0\
0N
0]
#72500
1!
16
1\
1N
1]
1v
1R
0^
0a
0b
0c
1d
1A
1e
1+
#75000
0!
06
0\
0N
0]
#77500
1!
16
1\
1N
1]
0v
0u
0t
0s
1r
1V
0U
0T
0S
0R
0e
1f
1^
0d
1=
0>
0?
0@
0A
1e
0f
0+
0*
0)
0(
1'
#80000
0!
06
0\
0N
0]
#82500
1!
16
1\
1N
1]
1v
1R
0^
1a
1A
1+
#85000
0!
06
0\
0N
0]
#87500
1!
16
1\
1N
1]
0v
1u
1S
0R
1^
1@
0A
0+
1*
#90000
0!
06
0\
0N
0]
#92500
1!
16
1\
1N
1]
1v
1R
0^
0a
1b
1A
1+
#95000
0!
06
0\
0N
0]
#97500
1!
16
1\
1N
1]
0v
0u
1t
1T
0S
0R
1^
1?
0@
0A
0+
0*
1)
#100000
0!
06
0\
0N
0]
#102500
1!
16
1\
1N
1]
1v
1R
0^
1a
1A
1+
#105000
0!
06
0\
0N
0]
#107500
1!
16
1\
1N
1]
0v
1u
1S
0R
1^
1@
0A
0+
1*
#110000
0!
06
0\
0N
0]
#112500
1!
16
1\
1N
1]
1v
1R
0^
0a
0b
1c
1A
1+
#115000
0!
06
0\
0N
0]
#117500
1!
16
1\
1N
1]
0v
0u
0t
1s
1U
0T
0S
0R
1^
1>
0?
0@
0A
0+
0*
0)
1(
#120000
0!
06
0\
0N
0]
#122500
1!
16
1\
1N
1]
1v
1R
0^
1a
1A
1+
#125000
0!
06
0\
0N
0]
#127500
1!
16
1\
1N
1]
0v
1u
1S
0R
1^
1@
0A
0+
1*
#130000
0!
06
0\
0N
0]
#132500
1!
16
1\
1N
1]
1v
1R
0^
0a
1b
1A
1+
#135000
0!
06
0\
0N
0]
#137500
1!
16
1\
1N
1]
0v
0u
1t
1T
0S
0R
1^
1?
0@
0A
0+
0*
1)
#140000
0!
06
0\
0N
0]
#142500
1!
16
1\
1N
1]
1v
1R
0^
1a
1A
1+
#145000
0!
06
0\
0N
0]
#147500
1!
16
1\
1N
1]
0v
1u
1S
0R
1^
1@
0A
0+
1*
#150000
0!
06
0\
0N
0]
#152500
1!
16
1\
1N
1]
1v
1R
0^
0a
0b
0c
1d
1A
0e
1f
1+
#155000
0!
06
0\
0N
0]
#157500
1!
16
1\
1N
1]
0v
0u
0t
0s
0r
1q
1W
0V
0U
0T
0S
0R
1e
1^
0d
1<
0=
0>
0?
0@
0A
0e
0+
0*
0)
0(
0'
1&
#160000
0!
06
0\
0N
0]
#162500
1!
16
1\
1N
1]
1v
1R
0^
1a
1A
1+
#165000
0!
06
0\
0N
0]
#167500
1!
16
1\
1N
1]
0v
1u
1S
0R
1^
1@
0A
0+
1*
#170000
0!
06
0\
0N
0]
#172500
1!
16
1\
1N
1]
1v
1R
0^
0a
1b
1A
1+
#175000
0!
06
0\
0N
0]
#177500
1!
16
1\
1N
1]
0v
0u
1t
1T
0S
0R
1^
1?
0@
0A
0+
0*
1)
#180000
0!
06
0\
0N
0]
#182500
1!
16
1\
1N
1]
1v
1R
0^
1a
1A
1+
#185000
0!
06
0\
0N
0]
#187500
1!
16
1\
1N
1]
0v
1u
1S
0R
1^
1@
0A
0+
1*
#190000
0!
06
0\
0N
0]
#192500
1!
16
1\
1N
1]
1v
1R
0^
0a
0b
1c
1A
1+
#195000
0!
06
0\
0N
0]
#197500
1!
16
1\
1N
1]
0v
0u
0t
1s
1U
0T
0S
0R
1^
1>
0?
0@
0A
0+
0*
0)
1(
#200000
0!
06
0\
0N
0]
#202500
1!
16
1\
1N
1]
1v
1R
0^
1a
1A
1+
#205000
0!
06
0\
0N
0]
#207500
1!
16
1\
1N
1]
0v
1u
1S
0R
1^
1@
0A
0+
1*
#210000
0!
06
0\
0N
0]
#212500
1!
16
1\
1N
1]
1v
1R
0^
0a
1b
1A
1+
#215000
0!
06
0\
0N
0]
#217500
1!
16
1\
1N
1]
0v
0u
1t
1T
0S
0R
1^
1?
0@
0A
0+
0*
1)
#220000
0!
06
0\
0N
0]
#222500
1!
16
1\
1N
1]
1v
1R
0^
1a
1A
1+
#225000
0!
06
0\
0N
0]
#227500
1!
16
1\
1N
1]
0v
1u
1S
0R
1^
1@
0A
0+
1*
#230000
0!
06
0\
0N
0]
#232500
1!
16
1\
1N
1]
1v
1R
0^
0a
0b
0c
1d
1A
1e
1+
#235000
0!
06
0\
0N
0]
#237500
1!
16
1\
1N
1]
0v
0u
0t
0s
1r
1V
0U
0T
0S
0R
0e
0f
1g
1^
0d
1=
0>
0?
0@
0A
1e
1f
0g
0+
0*
0)
0(
1'
#240000
0!
06
0\
0N
0]
#242500
1!
16
1\
1N
1]
1v
1R
0^
1a
1A
1+
#245000
0!
06
0\
0N
0]
#247500
1!
16
1\
1N
1]
0v
1u
1S
0R
1^
1@
0A
0+
1*
#250000
0!
06
0\
0N
0]
#252500
1!
16
1\
1N
1]
1v
1R
0^
0a
1b
1A
1+
#255000
0!
06
0\
0N
0]
#257500
1!
16
1\
1N
1]
0v
0u
1t
1T
0S
0R
1^
1?
0@
0A
0+
0*
1)
#260000
0!
06
0\
0N
0]
#262500
1!
16
1\
1N
1]
1v
1R
0^
1a
1A
1+
#265000
0!
06
0\
0N
0]
#267500
1!
16
1\
1N
1]
0v
1u
1S
0R
1^
1@
0A
0+
1*
#270000
0!
06
0\
0N
0]
#272500
1!
16
1\
1N
1]
1v
1R
0^
0a
0b
1c
1A
1+
#275000
0!
06
0\
0N
0]
#277500
1!
16
1\
1N
1]
0v
0u
0t
1s
1U
0T
0S
0R
1^
1>
0?
0@
0A
0+
0*
0)
1(
#280000
0!
06
0\
0N
0]
#282500
1!
16
1\
1N
1]
1v
1R
0^
1a
1A
1+
#285000
0!
06
0\
0N
0]
#287500
1!
16
1\
1N
1]
0v
1u
1S
0R
1^
1@
0A
0+
1*
#290000
0!
06
0\
0N
0]
#292500
1!
16
1\
1N
1]
1v
1R
0^
0a
1b
1A
1+
#295000
0!
06
0\
0N
0]
#297500
1!
16
1\
1N
1]
0v
0u
1t
1T
0S
0R
1^
1?
0@
0A
0+
0*
1)
#300000
0!
06
0\
0N
0]
#302500
1!
16
1\
1N
1]
1v
1R
0^
1a
1A
1+
#305000
0!
06
0\
0N
0]
#307500
1!
16
1\
1N
1]
0v
1u
1S
0R
1^
1@
0A
0+
1*
#310000
0!
06
0\
0N
0]
#312500
1!
16
1\
1N
1]
1v
1R
0^
0a
0b
0c
1d
1A
0e
0f
1g
1+
#315000
0!
06
0\
0N
0]
#317500
1!
16
1\
1N
1]
0v
0u
0t
0s
0r
0q
1p
1X
0W
0V
0U
0T
0S
0R
1e
1^
0d
1;
0<
0=
0>
0?
0@
0A
0e
0+
0*
0)
0(
0'
0&
1%
#320000
0!
06
0\
0N
0]
#322500
1!
16
1\
1N
1]
1v
1R
0^
1a
1A
1+
#325000
0!
06
0\
0N
0]
#327500
1!
16
1\
1N
1]
0v
1u
1S
0R
1^
1@
0A
0+
1*
#330000
0!
06
0\
0N
0]
#332500
1!
16
1\
1N
1]
1v
1R
0^
0a
1b
1A
1+
#335000
0!
06
0\
0N
0]
#337500
1!
16
1\
1N
1]
0v
0u
1t
1T
0S
0R
1^
1?
0@
0A
0+
0*
1)
#340000
0!
06
0\
0N
0]
#342500
1!
16
1\
1N
1]
1v
1R
0^
1a
1A
1+
#345000
0!
06
0\
0N
0]
#347500
1!
16
1\
1N
1]
0v
1u
1S
0R
1^
1@
0A
0+
1*
#350000
0!
06
0\
0N
0]
#352500
1!
16
1\
1N
1]
1v
1R
0^
0a
0b
1c
1A
1+
#355000
0!
06
0\
0N
0]
#357500
1!
16
1\
1N
1]
0v
0u
0t
1s
1U
0T
0S
0R
1^
1>
0?
0@
0A
0+
0*
0)
1(
#360000
0!
06
0\
0N
0]
#362500
1!
16
1\
1N
1]
1v
1R
0^
1a
1A
1+
#365000
0!
06
0\
0N
0]
#367500
1!
16
1\
1N
1]
0v
1u
1S
0R
1^
1@
0A
0+
1*
#370000
0!
06
0\
0N
0]
#372500
1!
16
1\
1N
1]
1v
1R
0^
0a
1b
1A
1+
#375000
0!
06
0\
0N
0]
#377500
1!
16
1\
1N
1]
0v
0u
1t
1T
0S
0R
1^
1?
0@
0A
0+
0*
1)
#380000
0!
06
0\
0N
0]
#382500
1!
16
1\
1N
1]
1v
1R
0^
1a
1A
1+
#385000
0!
06
0\
0N
0]
#387500
1!
16
1\
1N
1]
0v
1u
1S
0R
1^
1@
0A
0+
1*
#390000
0!
06
0\
0N
0]
#392500
1!
16
1\
1N
1]
1v
1R
0^
0a
0b
0c
1d
1A
1e
1+
#395000
0!
06
0\
0N
0]
#397500
1!
16
1\
1N
1]
0v
0u
0t
0s
1r
1V
0U
0T
0S
0R
0e
1f
1^
0d
1=
0>
0?
0@
0A
1e
0f
0+
0*
0)
0(
1'
#400000
0!
06
0\
0N
0]
#402500
1!
16
1\
1N
1]
1v
1R
0^
1a
1A
1+
#405000
0!
06
0\
0N
0]
#407500
1!
16
1\
1N
1]
0v
1u
1S
0R
1^
1@
0A
0+
1*
#410000
0!
06
0\
0N
0]
#412500
1!
16
1\
1N
1]
1v
1R
0^
0a
1b
1A
1+
#415000
0!
06
0\
0N
0]
#417500
1!
16
1\
1N
1]
0v
0u
1t
1T
0S
0R
1^
1?
0@
0A
0+
0*
1)
#420000
0!
06
0\
0N
0]
#422500
1!
16
1\
1N
1]
1v
1R
0^
1a
1A
1+
#425000
0!
06
0\
0N
0]
#427500
1!
16
1\
1N
1]
0v
1u
1S
0R
1^
1@
0A
0+
1*
#430000
0!
06
0\
0N
0]
#432500
1!
16
1\
1N
1]
1v
1R
0^
0a
0b
1c
1A
1+
#435000
0!
06
0\
0N
0]
#437500
1!
16
1\
1N
1]
0v
0u
0t
1s
1U
0T
0S
0R
1^
1>
0?
0@
0A
0+
0*
0)
1(
#440000
0!
06
0\
0N
0]
#442500
1!
16
1\
1N
1]
1v
1R
0^
1a
1A
1+
#445000
0!
06
0\
0N
0]
#447500
1!
16
1\
1N
1]
0v
1u
1S
0R
1^
1@
0A
0+
1*
#450000
0!
06
0\
0N
0]
#452500
1!
16
1\
1N
1]
1v
1R
0^
0a
1b
1A
1+
#455000
0!
06
0\
0N
0]
#457500
1!
16
1\
1N
1]
0v
0u
1t
1T
0S
0R
1^
1?
0@
0A
0+
0*
1)
#460000
0!
06
0\
0N
0]
#462500
1!
16
1\
1N
1]
1v
1R
0^
1a
1A
1+
#465000
0!
06
0\
0N
0]
#467500
1!
16
1\
1N
1]
0v
1u
1S
0R
1^
1@
0A
0+
1*
#470000
0!
06
0\
0N
0]
#472500
1!
16
1\
1N
1]
1v
1R
0^
0a
0b
0c
1d
1A
0e
1f
1+
#475000
0!
06
0\
0N
0]
#477500
1!
16
1\
1N
1]
0v
0u
0t
0s
0r
1q
1W
0V
0U
0T
0S
0R
1e
1^
0d
1<
0=
0>
0?
0@
0A
0e
0+
0*
0)
0(
0'
1&
#480000
0!
06
0\
0N
0]
#482500
1!
16
1\
1N
1]
1v
1R
0^
1a
1A
1+
#485000
0!
06
0\
0N
0]
#487500
1!
16
1\
1N
1]
0v
1u
1S
0R
1^
1@
0A
0+
1*
#490000
0!
06
0\
0N
0]
#492500
1!
16
1\
1N
1]
1v
1R
0^
0a
1b
1A
1+
#495000
0!
06
0\
0N
0]
#497500
1!
16
1\
1N
1]
0v
0u
1t
1T
0S
0R
1^
1?
0@
0A
0+
0*
1)
#500000
0!
06
0\
0N
0]
#502500
1!
16
1\
1N
1]
1v
1R
0^
1a
1A
1+
#505000
0!
06
0\
0N
0]
#507500
1!
16
1\
1N
1]
0v
1u
1S
0R
1^
1@
0A
0+
1*
#510000
0!
06
0\
0N
0]
#512500
1!
16
1\
1N
1]
1v
1R
0^
0a
0b
1c
1A
1+
#515000
0!
06
0\
0N
0]
#517500
1!
16
1\
1N
1]
0v
0u
0t
1s
1U
0T
0S
0R
1^
1>
0?
0@
0A
0+
0*
0)
1(
#520000
0!
06
0\
0N
0]
#522500
1!
16
1\
1N
1]
1v
1R
0^
1a
1A
1+
#525000
0!
06
0\
0N
0]
#527500
1!
16
1\
1N
1]
0v
1u
1S
0R
1^
1@
0A
0+
1*
#530000
0!
06
0\
0N
0]
#532500
1!
16
1\
1N
1]
1v
1R
0^
0a
1b
1A
1+
#535000
0!
06
0\
0N
0]
#537500
1!
16
1\
1N
1]
0v
0u
1t
1T
0S
0R
1^
1?
0@
0A
0+
0*
1)
#540000
0!
06
0\
0N
0]
#542500
1!
16
1\
1N
1]
1v
1R
0^
1a
1A
1+
#545000
0!
06
0\
0N
0]
#547500
1!
16
1\
1N
1]
0v
1u
1S
0R
1^
1@
0A
0+
1*
#550000
0!
06
0\
0N
0]
#552500
1!
16
1\
1N
1]
1v
1R
0^
0a
0b
0c
1d
1A
1e
1+
#555000
0!
06
0\
0N
0]
#557500
1!
16
1\
1N
1]
0v
0u
0t
0s
1r
1V
0U
0T
0S
0R
0e
0f
0g
1h
0j
1^
0d
1=
0>
0?
0@
0A
1e
1f
1g
0h
1i
0+
0*
0)
0(
1'
0i
#560000
0!
06
0\
0N
0]
#562500
1!
16
1\
1N
1]
1v
1R
0^
1a
1A
1+
#565000
0!
06
0\
0N
0]
#567500
1!
16
1\
1N
1]
0v
1u
1S
0R
1^
1@
0A
0+
1*
#570000
0!
06
0\
0N
0]
#572500
1!
16
1\
1N
1]
1v
1R
0^
0a
1b
1A
1+
#575000
0!
06
0\
0N
0]
#577500
1!
16
1\
1N
1]
0v
0u
1t
1T
0S
0R
1^
1?
0@
0A
0+
0*
1)
#580000
0!
06
0\
0N
0]
#582500
1!
16
1\
1N
1]
1v
1R
0^
1a
1A
1+
#585000
0!
06
0\
0N
0]
#587500
1!
16
1\
1N
1]
0v
1u
1S
0R
1^
1@
0A
0+
1*
#590000
0!
06
0\
0N
0]
#592500
1!
16
1\
1N
1]
1v
1R
0^
0a
0b
1c
1A
1+
#595000
0!
06
0\
0N
0]
#597500
1!
16
1\
1N
1]
0v
0u
0t
1s
1U
0T
0S
0R
1^
1>
0?
0@
0A
0+
0*
0)
1(
#600000
0!
06
0\
0N
0]
#602500
1!
16
1\
1N
1]
1v
1R
0^
1a
1A
1+
#605000
0!
06
0\
0N
0]
#607500
1!
16
1\
1N
1]
0v
1u
1S
0R
1^
1@
0A
0+
1*
#610000
0!
06
0\
0N
0]
#612500
1!
16
1\
1N
1]
1v
1R
0^
0a
1b
1A
1+
#615000
0!
06
0\
0N
0]
#617500
1!
16
1\
1N
1]
0v
0u
1t
1T
0S
0R
1^
1?
0@
0A
0+
0*
1)
#620000
0!
06
0\
0N
0]
#622500
1!
16
1\
1N
1]
1v
1R
0^
1a
1A
1+
#625000
0!
06
0\
0N
0]
#627500
1!
16
1\
1N
1]
0v
1u
1S
0R
1^
1@
0A
0+
1*
#630000
0!
06
0\
0N
0]
#632500
1!
16
1\
1N
1]
1v
1R
0^
0a
0b
0c
1d
1A
0e
0f
0g
1h
1+
1i
#635000
0!
06
0\
0N
0]
#637500
1!
16
1\
1N
1]
0v
0u
0t
0s
0r
0q
0p
1o
1Y
0X
0W
0V
0U
0T
0S
0R
0i
1k
1e
0h
1j
1^
0d
1:
0;
0<
0=
0>
0?
0@
0A
0e
0k
1i
0+
0*
0)
0(
0'
0&
0%
1$
#640000
0!
06
0\
0N
0]
#642500
1!
16
1\
1N
1]
1v
1R
0^
1a
1A
1+
#645000
0!
06
0\
0N
0]
#647500
1!
16
1\
1N
1]
0v
1u
1S
0R
1^
1@
0A
0+
1*
#650000
0!
06
0\
0N
0]
#652500
1!
16
1\
1N
1]
1v
1R
0^
0a
1b
1A
1+
#655000
0!
06
0\
0N
0]
#657500
1!
16
1\
1N
1]
0v
0u
1t
1T
0S
0R
1^
1?
0@
0A
0+
0*
1)
#660000
0!
06
0\
0N
0]
#662500
1!
16
1\
1N
1]
1v
1R
0^
1a
1A
1+
#665000
0!
06
0\
0N
0]
#667500
1!
16
1\
1N
1]
0v
1u
1S
0R
1^
1@
0A
0+
1*
#670000
0!
06
0\
0N
0]
#672500
1!
16
1\
1N
1]
1v
1R
0^
0a
0b
1c
1A
1+
#675000
0!
06
0\
0N
0]
#677500
1!
16
1\
1N
1]
0v
0u
0t
1s
1U
0T
0S
0R
1^
1>
0?
0@
0A
0+
0*
0)
1(
#680000
0!
06
0\
0N
0]
#682500
1!
16
1\
1N
1]
1v
1R
0^
1a
1A
1+
#685000
0!
06
0\
0N
0]
#687500
1!
16
1\
1N
1]
0v
1u
1S
0R
1^
1@
0A
0+
1*
#690000
0!
06
0\
0N
0]
#692500
1!
16
1\
1N
1]
1v
1R
0^
0a
1b
1A
1+
#695000
0!
06
0\
0N
0]
#697500
1!
16
1\
1N
1]
0v
0u
1t
1T
0S
0R
1^
1?
0@
0A
0+
0*
1)
#700000
0!
06
0\
0N
0]
#702500
1!
16
1\
1N
1]
1v
1R
0^
1a
1A
1+
#705000
0!
06
0\
0N
0]
#707500
1!
16
1\
1N
1]
0v
1u
1S
0R
1^
1@
0A
0+
1*
#710000
0!
06
0\
0N
0]
#712500
1!
16
1\
1N
1]
1v
1R
0^
0a
0b
0c
1d
1A
1e
1+
#715000
0!
06
0\
0N
0]
#717500
1!
16
1\
1N
1]
0v
0u
0t
0s
1r
1V
0U
0T
0S
0R
0e
1f
1^
0d
1=
0>
0?
0@
0A
1e
0f
0+
0*
0)
0(
1'
#720000
0!
06
0\
0N
0]
#722500
1!
16
1\
1N
1]
1v
1R
0^
1a
1A
1+
#725000
0!
06
0\
0N
0]
#727500
1!
16
1\
1N
1]
0v
1u
1S
0R
1^
1@
0A
0+
1*
#730000
0!
06
0\
0N
0]
#732500
1!
16
1\
1N
1]
1v
1R
0^
0a
1b
1A
1+
#735000
0!
06
0\
0N
0]
#737500
1!
16
1\
1N
1]
0v
0u
1t
1T
0S
0R
1^
1?
0@
0A
0+
0*
1)
#740000
0!
06
0\
0N
0]
#742500
1!
16
1\
1N
1]
1v
1R
0^
1a
1A
1+
#745000
0!
06
0\
0N
0]
#747500
1!
16
1\
1N
1]
0v
1u
1S
0R
1^
1@
0A
0+
1*
#750000
0!
06
0\
0N
0]
#752500
1!
16
1\
1N
1]
1v
1R
0^
0a
0b
1c
1A
1+
#755000
0!
06
0\
0N
0]
#757500
1!
16
1\
1N
1]
0v
0u
0t
1s
1U
0T
0S
0R
1^
1>
0?
0@
0A
0+
0*
0)
1(
#760000
0!
06
0\
0N
0]
#762500
1!
16
1\
1N
1]
1v
1R
0^
1a
1A
1+
#765000
0!
06
0\
0N
0]
#767500
1!
16
1\
1N
1]
0v
1u
1S
0R
1^
1@
0A
0+
1*
#770000
0!
06
0\
0N
0]
#772500
1!
16
1\
1N
1]
1v
1R
0^
0a
1b
1A
1+
#775000
0!
06
0\
0N
0]
#777500
1!
16
1\
1N
1]
0v
0u
1t
1T
0S
0R
1^
1?
0@
0A
0+
0*
1)
#780000
0!
06
0\
0N
0]
#782500
1!
16
1\
1N
1]
1v
1R
0^
1a
1A
1+
#785000
0!
06
0\
0N
0]
#787500
1!
16
1\
1N
1]
0v
1u
1S
0R
1^
1@
0A
0+
1*
#790000
0!
06
0\
0N
0]
#792500
1!
16
1\
1N
1]
1v
1R
0^
0a
0b
0c
1d
1A
0e
1f
1+
#795000
0!
06
0\
0N
0]
#797500
1!
16
1\
1N
1]
0v
0u
0t
0s
0r
1q
1W
0V
0U
0T
0S
0R
1e
1^
0d
1<
0=
0>
0?
0@
0A
0e
0+
0*
0)
0(
0'
1&
#800000
0!
06
0\
0N
0]
#802500
1!
16
1\
1N
1]
1v
1R
0^
1a
1A
1+
#805000
0!
06
0\
0N
0]
#807500
1!
16
1\
1N
1]
0v
1u
1S
0R
1^
1@
0A
0+
1*
#810000
0!
06
0\
0N
0]
#812500
1!
16
1\
1N
1]
1v
1R
0^
0a
1b
1A
1+
#815000
0!
06
0\
0N
0]
#817500
1!
16
1\
1N
1]
0v
0u
1t
1T
0S
0R
1^
1?
0@
0A
0+
0*
1)
#820000
0!
06
0\
0N
0]
#822500
1!
16
1\
1N
1]
1v
1R
0^
1a
1A
1+
#825000
0!
06
0\
0N
0]
#827500
1!
16
1\
1N
1]
0v
1u
1S
0R
1^
1@
0A
0+
1*
#830000
0!
06
0\
0N
0]
#832500
1!
16
1\
1N
1]
1v
1R
0^
0a
0b
1c
1A
1+
#835000
0!
06
0\
0N
0]
#837500
1!
16
1\
1N
1]
0v
0u
0t
1s
1U
0T
0S
0R
1^
1>
0?
0@
0A
0+
0*
0)
1(
#840000
0!
06
0\
0N
0]
#842500
1!
16
1\
1N
1]
1v
1R
0^
1a
1A
1+
#845000
0!
06
0\
0N
0]
#847500
1!
16
1\
1N
1]
0v
1u
1S
0R
1^
1@
0A
0+
1*
#850000
0!
06
0\
0N
0]
#852500
1!
16
1\
1N
1]
1v
1R
0^
0a
1b
1A
1+
#855000
0!
06
0\
0N
0]
#857500
1!
16
1\
1N
1]
0v
0u
1t
1T
0S
0R
1^
1?
0@
0A
0+
0*
1)
#860000
0!
06
0\
0N
0]
#862500
1!
16
1\
1N
1]
1v
1R
0^
1a
1A
1+
#865000
0!
06
0\
0N
0]
#867500
1!
16
1\
1N
1]
0v
1u
1S
0R
1^
1@
0A
0+
1*
#870000
0!
06
0\
0N
0]
#872500
1!
16
1\
1N
1]
1v
1R
0^
0a
0b
0c
1d
1A
1e
1+
#875000
0!
06
0\
0N
0]
#877500
1!
16
1\
1N
1]
0v
0u
0t
0s
1r
1V
0U
0T
0S
0R
0e
0f
1g
1^
0d
1=
0>
0?
0@
0A
1e
1f
0g
0+
0*
0)
0(
1'
#880000
0!
06
0\
0N
0]
#882500
1!
16
1\
1N
1]
1v
1R
0^
1a
1A
1+
#885000
0!
06
0\
0N
0]
#887500
1!
16
1\
1N
1]
0v
1u
1S
0R
1^
1@
0A
0+
1*
#890000
0!
06
0\
0N
0]
#892500
1!
16
1\
1N
1]
1v
1R
0^
0a
1b
1A
1+
#895000
0!
06
0\
0N
0]
#897500
1!
16
1\
1N
1]
0v
0u
1t
1T
0S
0R
1^
1?
0@
0A
0+
0*
1)
#900000
0!
06
0\
0N
0]
#902500
1!
16
1\
1N
1]
1v
1R
0^
1a
1A
1+
#905000
0!
06
0\
0N
0]
#907500
1!
16
1\
1N
1]
0v
1u
1S
0R
1^
1@
0A
0+
1*
#910000
0!
06
0\
0N
0]
#912500
1!
16
1\
1N
1]
1v
1R
0^
0a
0b
1c
1A
1+
#915000
0!
06
0\
0N
0]
#917500
1!
16
1\
1N
1]
0v
0u
0t
1s
1U
0T
0S
0R
1^
1>
0?
0@
0A
0+
0*
0)
1(
#920000
0!
06
0\
0N
0]
#922500
1!
16
1\
1N
1]
1v
1R
0^
1a
1A
1+
#925000
0!
06
0\
0N
0]
#927500
1!
16
1\
1N
1]
0v
1u
1S
0R
1^
1@
0A
0+
1*
#930000
0!
06
0\
0N
0]
#932500
1!
16
1\
1N
1]
1v
1R
0^
0a
1b
1A
1+
#935000
0!
06
0\
0N
0]
#937500
1!
16
1\
1N
1]
0v
0u
1t
1T
0S
0R
1^
1?
0@
0A
0+
0*
1)
